[2023-06-05T09:38:11.361+0000] {processor.py:157} INFO - Started process (PID=14690) to work on /home/airflow/.local/lib/python3.7/site-packages/airflow/example_dags/example_branch_labels.py
[2023-06-05T09:38:11.362+0000] {processor.py:826} INFO - Processing file /home/airflow/.local/lib/python3.7/site-packages/airflow/example_dags/example_branch_labels.py for tasks to queue
[2023-06-05T09:38:11.362+0000] {logging_mixin.py:149} INFO - [2023-06-05T09:38:11.362+0000] {dagbag.py:541} INFO - Filling up the DagBag from /home/airflow/.local/lib/python3.7/site-packages/airflow/example_dags/example_branch_labels.py
[2023-06-05T09:38:11.371+0000] {processor.py:836} INFO - DAG(s) dict_keys(['example_branch_labels']) retrieved from /home/airflow/.local/lib/python3.7/site-packages/airflow/example_dags/example_branch_labels.py
[2023-06-05T09:38:11.396+0000] {logging_mixin.py:149} INFO - [2023-06-05T09:38:11.396+0000] {dag.py:2726} INFO - Sync 1 DAGs
[2023-06-05T09:38:11.428+0000] {logging_mixin.py:149} INFO - [2023-06-05T09:38:11.427+0000] {dag.py:3490} INFO - Setting next_dagrun for example_branch_labels to 2023-06-04T00:00:00+00:00, run_after=2023-06-05T00:00:00+00:00
[2023-06-05T09:38:11.555+0000] {processor.py:179} INFO - Processing /home/airflow/.local/lib/python3.7/site-packages/airflow/example_dags/example_branch_labels.py took 0.197 seconds
[2023-06-05T09:38:50.507+0000] {processor.py:157} INFO - Started process (PID=14752) to work on /home/airflow/.local/lib/python3.7/site-packages/airflow/example_dags/example_branch_labels.py
[2023-06-05T09:38:50.508+0000] {processor.py:826} INFO - Processing file /home/airflow/.local/lib/python3.7/site-packages/airflow/example_dags/example_branch_labels.py for tasks to queue
[2023-06-05T09:38:50.509+0000] {logging_mixin.py:149} INFO - [2023-06-05T09:38:50.509+0000] {dagbag.py:541} INFO - Filling up the DagBag from /home/airflow/.local/lib/python3.7/site-packages/airflow/example_dags/example_branch_labels.py
[2023-06-05T09:38:50.520+0000] {processor.py:836} INFO - DAG(s) dict_keys(['example_branch_labels']) retrieved from /home/airflow/.local/lib/python3.7/site-packages/airflow/example_dags/example_branch_labels.py
[2023-06-05T09:38:50.552+0000] {logging_mixin.py:149} INFO - [2023-06-05T09:38:50.551+0000] {dag.py:2726} INFO - Sync 1 DAGs
[2023-06-05T09:38:50.590+0000] {logging_mixin.py:149} INFO - [2023-06-05T09:38:50.590+0000] {dag.py:3490} INFO - Setting next_dagrun for example_branch_labels to 2023-06-04T00:00:00+00:00, run_after=2023-06-05T00:00:00+00:00
[2023-06-05T09:38:50.676+0000] {processor.py:179} INFO - Processing /home/airflow/.local/lib/python3.7/site-packages/airflow/example_dags/example_branch_labels.py took 0.172 seconds
[2023-06-05T09:39:20.928+0000] {processor.py:157} INFO - Started process (PID=14817) to work on /home/airflow/.local/lib/python3.7/site-packages/airflow/example_dags/example_branch_labels.py
[2023-06-05T09:39:20.929+0000] {processor.py:826} INFO - Processing file /home/airflow/.local/lib/python3.7/site-packages/airflow/example_dags/example_branch_labels.py for tasks to queue
[2023-06-05T09:39:20.930+0000] {logging_mixin.py:149} INFO - [2023-06-05T09:39:20.930+0000] {dagbag.py:541} INFO - Filling up the DagBag from /home/airflow/.local/lib/python3.7/site-packages/airflow/example_dags/example_branch_labels.py
[2023-06-05T09:39:20.938+0000] {processor.py:836} INFO - DAG(s) dict_keys(['example_branch_labels']) retrieved from /home/airflow/.local/lib/python3.7/site-packages/airflow/example_dags/example_branch_labels.py
[2023-06-05T09:39:20.964+0000] {logging_mixin.py:149} INFO - [2023-06-05T09:39:20.964+0000] {dag.py:2726} INFO - Sync 1 DAGs
[2023-06-05T09:39:20.997+0000] {logging_mixin.py:149} INFO - [2023-06-05T09:39:20.997+0000] {dag.py:3490} INFO - Setting next_dagrun for example_branch_labels to 2023-06-04T00:00:00+00:00, run_after=2023-06-05T00:00:00+00:00
[2023-06-05T09:39:21.019+0000] {processor.py:179} INFO - Processing /home/airflow/.local/lib/python3.7/site-packages/airflow/example_dags/example_branch_labels.py took 0.094 seconds
[2023-06-05T09:39:51.367+0000] {processor.py:157} INFO - Started process (PID=14878) to work on /home/airflow/.local/lib/python3.7/site-packages/airflow/example_dags/example_branch_labels.py
[2023-06-05T09:39:51.368+0000] {processor.py:826} INFO - Processing file /home/airflow/.local/lib/python3.7/site-packages/airflow/example_dags/example_branch_labels.py for tasks to queue
[2023-06-05T09:39:51.369+0000] {logging_mixin.py:149} INFO - [2023-06-05T09:39:51.368+0000] {dagbag.py:541} INFO - Filling up the DagBag from /home/airflow/.local/lib/python3.7/site-packages/airflow/example_dags/example_branch_labels.py
[2023-06-05T09:39:51.377+0000] {processor.py:836} INFO - DAG(s) dict_keys(['example_branch_labels']) retrieved from /home/airflow/.local/lib/python3.7/site-packages/airflow/example_dags/example_branch_labels.py
[2023-06-05T09:39:51.403+0000] {logging_mixin.py:149} INFO - [2023-06-05T09:39:51.403+0000] {dag.py:2726} INFO - Sync 1 DAGs
[2023-06-05T09:39:51.435+0000] {logging_mixin.py:149} INFO - [2023-06-05T09:39:51.435+0000] {dag.py:3490} INFO - Setting next_dagrun for example_branch_labels to 2023-06-04T00:00:00+00:00, run_after=2023-06-05T00:00:00+00:00
[2023-06-05T09:39:51.461+0000] {processor.py:179} INFO - Processing /home/airflow/.local/lib/python3.7/site-packages/airflow/example_dags/example_branch_labels.py took 0.097 seconds
[2023-06-05T09:40:21.762+0000] {processor.py:157} INFO - Started process (PID=14939) to work on /home/airflow/.local/lib/python3.7/site-packages/airflow/example_dags/example_branch_labels.py
[2023-06-05T09:40:21.763+0000] {processor.py:826} INFO - Processing file /home/airflow/.local/lib/python3.7/site-packages/airflow/example_dags/example_branch_labels.py for tasks to queue
[2023-06-05T09:40:21.764+0000] {logging_mixin.py:149} INFO - [2023-06-05T09:40:21.764+0000] {dagbag.py:541} INFO - Filling up the DagBag from /home/airflow/.local/lib/python3.7/site-packages/airflow/example_dags/example_branch_labels.py
[2023-06-05T09:40:21.772+0000] {processor.py:836} INFO - DAG(s) dict_keys(['example_branch_labels']) retrieved from /home/airflow/.local/lib/python3.7/site-packages/airflow/example_dags/example_branch_labels.py
[2023-06-05T09:40:21.800+0000] {logging_mixin.py:149} INFO - [2023-06-05T09:40:21.800+0000] {dag.py:2726} INFO - Sync 1 DAGs
[2023-06-05T09:40:21.837+0000] {logging_mixin.py:149} INFO - [2023-06-05T09:40:21.837+0000] {dag.py:3490} INFO - Setting next_dagrun for example_branch_labels to 2023-06-04T00:00:00+00:00, run_after=2023-06-05T00:00:00+00:00
[2023-06-05T09:40:21.861+0000] {processor.py:179} INFO - Processing /home/airflow/.local/lib/python3.7/site-packages/airflow/example_dags/example_branch_labels.py took 0.102 seconds
[2023-06-05T09:40:52.340+0000] {processor.py:157} INFO - Started process (PID=15000) to work on /home/airflow/.local/lib/python3.7/site-packages/airflow/example_dags/example_branch_labels.py
[2023-06-05T09:40:52.341+0000] {processor.py:826} INFO - Processing file /home/airflow/.local/lib/python3.7/site-packages/airflow/example_dags/example_branch_labels.py for tasks to queue
[2023-06-05T09:40:52.342+0000] {logging_mixin.py:149} INFO - [2023-06-05T09:40:52.341+0000] {dagbag.py:541} INFO - Filling up the DagBag from /home/airflow/.local/lib/python3.7/site-packages/airflow/example_dags/example_branch_labels.py
[2023-06-05T09:40:52.351+0000] {processor.py:836} INFO - DAG(s) dict_keys(['example_branch_labels']) retrieved from /home/airflow/.local/lib/python3.7/site-packages/airflow/example_dags/example_branch_labels.py
[2023-06-05T09:40:52.381+0000] {logging_mixin.py:149} INFO - [2023-06-05T09:40:52.380+0000] {dag.py:2726} INFO - Sync 1 DAGs
[2023-06-05T09:40:52.415+0000] {logging_mixin.py:149} INFO - [2023-06-05T09:40:52.415+0000] {dag.py:3490} INFO - Setting next_dagrun for example_branch_labels to 2023-06-04T00:00:00+00:00, run_after=2023-06-05T00:00:00+00:00
[2023-06-05T09:40:52.446+0000] {processor.py:179} INFO - Processing /home/airflow/.local/lib/python3.7/site-packages/airflow/example_dags/example_branch_labels.py took 0.109 seconds
[2023-06-05T09:41:23.118+0000] {processor.py:157} INFO - Started process (PID=15062) to work on /home/airflow/.local/lib/python3.7/site-packages/airflow/example_dags/example_branch_labels.py
[2023-06-05T09:41:23.119+0000] {processor.py:826} INFO - Processing file /home/airflow/.local/lib/python3.7/site-packages/airflow/example_dags/example_branch_labels.py for tasks to queue
[2023-06-05T09:41:23.119+0000] {logging_mixin.py:149} INFO - [2023-06-05T09:41:23.119+0000] {dagbag.py:541} INFO - Filling up the DagBag from /home/airflow/.local/lib/python3.7/site-packages/airflow/example_dags/example_branch_labels.py
[2023-06-05T09:41:23.128+0000] {processor.py:836} INFO - DAG(s) dict_keys(['example_branch_labels']) retrieved from /home/airflow/.local/lib/python3.7/site-packages/airflow/example_dags/example_branch_labels.py
[2023-06-05T09:41:23.159+0000] {logging_mixin.py:149} INFO - [2023-06-05T09:41:23.159+0000] {dag.py:2726} INFO - Sync 1 DAGs
[2023-06-05T09:41:23.205+0000] {logging_mixin.py:149} INFO - [2023-06-05T09:41:23.205+0000] {dag.py:3490} INFO - Setting next_dagrun for example_branch_labels to 2023-06-04T00:00:00+00:00, run_after=2023-06-05T00:00:00+00:00
[2023-06-05T09:41:23.231+0000] {processor.py:179} INFO - Processing /home/airflow/.local/lib/python3.7/site-packages/airflow/example_dags/example_branch_labels.py took 0.116 seconds
[2023-06-05T09:41:53.820+0000] {processor.py:157} INFO - Started process (PID=15123) to work on /home/airflow/.local/lib/python3.7/site-packages/airflow/example_dags/example_branch_labels.py
[2023-06-05T09:41:53.820+0000] {processor.py:826} INFO - Processing file /home/airflow/.local/lib/python3.7/site-packages/airflow/example_dags/example_branch_labels.py for tasks to queue
[2023-06-05T09:41:53.821+0000] {logging_mixin.py:149} INFO - [2023-06-05T09:41:53.821+0000] {dagbag.py:541} INFO - Filling up the DagBag from /home/airflow/.local/lib/python3.7/site-packages/airflow/example_dags/example_branch_labels.py
[2023-06-05T09:41:53.829+0000] {processor.py:836} INFO - DAG(s) dict_keys(['example_branch_labels']) retrieved from /home/airflow/.local/lib/python3.7/site-packages/airflow/example_dags/example_branch_labels.py
[2023-06-05T09:41:53.856+0000] {logging_mixin.py:149} INFO - [2023-06-05T09:41:53.856+0000] {dag.py:2726} INFO - Sync 1 DAGs
[2023-06-05T09:41:53.888+0000] {logging_mixin.py:149} INFO - [2023-06-05T09:41:53.888+0000] {dag.py:3490} INFO - Setting next_dagrun for example_branch_labels to 2023-06-04T00:00:00+00:00, run_after=2023-06-05T00:00:00+00:00
[2023-06-05T09:41:53.912+0000] {processor.py:179} INFO - Processing /home/airflow/.local/lib/python3.7/site-packages/airflow/example_dags/example_branch_labels.py took 0.096 seconds
[2023-06-05T09:42:24.225+0000] {processor.py:157} INFO - Started process (PID=15185) to work on /home/airflow/.local/lib/python3.7/site-packages/airflow/example_dags/example_branch_labels.py
[2023-06-05T09:42:24.226+0000] {processor.py:826} INFO - Processing file /home/airflow/.local/lib/python3.7/site-packages/airflow/example_dags/example_branch_labels.py for tasks to queue
[2023-06-05T09:42:24.227+0000] {logging_mixin.py:149} INFO - [2023-06-05T09:42:24.227+0000] {dagbag.py:541} INFO - Filling up the DagBag from /home/airflow/.local/lib/python3.7/site-packages/airflow/example_dags/example_branch_labels.py
[2023-06-05T09:42:24.235+0000] {processor.py:836} INFO - DAG(s) dict_keys(['example_branch_labels']) retrieved from /home/airflow/.local/lib/python3.7/site-packages/airflow/example_dags/example_branch_labels.py
[2023-06-05T09:42:24.264+0000] {logging_mixin.py:149} INFO - [2023-06-05T09:42:24.263+0000] {dag.py:2726} INFO - Sync 1 DAGs
[2023-06-05T09:42:24.295+0000] {logging_mixin.py:149} INFO - [2023-06-05T09:42:24.295+0000] {dag.py:3490} INFO - Setting next_dagrun for example_branch_labels to 2023-06-04T00:00:00+00:00, run_after=2023-06-05T00:00:00+00:00
[2023-06-05T09:42:24.316+0000] {processor.py:179} INFO - Processing /home/airflow/.local/lib/python3.7/site-packages/airflow/example_dags/example_branch_labels.py took 0.093 seconds
[2023-06-05T09:42:54.731+0000] {processor.py:157} INFO - Started process (PID=15246) to work on /home/airflow/.local/lib/python3.7/site-packages/airflow/example_dags/example_branch_labels.py
[2023-06-05T09:42:54.732+0000] {processor.py:826} INFO - Processing file /home/airflow/.local/lib/python3.7/site-packages/airflow/example_dags/example_branch_labels.py for tasks to queue
[2023-06-05T09:42:54.732+0000] {logging_mixin.py:149} INFO - [2023-06-05T09:42:54.732+0000] {dagbag.py:541} INFO - Filling up the DagBag from /home/airflow/.local/lib/python3.7/site-packages/airflow/example_dags/example_branch_labels.py
[2023-06-05T09:42:54.740+0000] {processor.py:836} INFO - DAG(s) dict_keys(['example_branch_labels']) retrieved from /home/airflow/.local/lib/python3.7/site-packages/airflow/example_dags/example_branch_labels.py
[2023-06-05T09:42:54.769+0000] {logging_mixin.py:149} INFO - [2023-06-05T09:42:54.769+0000] {dag.py:2726} INFO - Sync 1 DAGs
[2023-06-05T09:42:54.804+0000] {logging_mixin.py:149} INFO - [2023-06-05T09:42:54.804+0000] {dag.py:3490} INFO - Setting next_dagrun for example_branch_labels to 2023-06-04T00:00:00+00:00, run_after=2023-06-05T00:00:00+00:00
[2023-06-05T09:42:54.830+0000] {processor.py:179} INFO - Processing /home/airflow/.local/lib/python3.7/site-packages/airflow/example_dags/example_branch_labels.py took 0.102 seconds
[2023-06-05T09:43:25.837+0000] {processor.py:157} INFO - Started process (PID=15298) to work on /home/airflow/.local/lib/python3.7/site-packages/airflow/example_dags/example_branch_labels.py
[2023-06-05T09:43:25.846+0000] {processor.py:826} INFO - Processing file /home/airflow/.local/lib/python3.7/site-packages/airflow/example_dags/example_branch_labels.py for tasks to queue
[2023-06-05T09:43:25.854+0000] {logging_mixin.py:149} INFO - [2023-06-05T09:43:25.854+0000] {dagbag.py:541} INFO - Filling up the DagBag from /home/airflow/.local/lib/python3.7/site-packages/airflow/example_dags/example_branch_labels.py
[2023-06-05T09:43:25.865+0000] {processor.py:836} INFO - DAG(s) dict_keys(['example_branch_labels']) retrieved from /home/airflow/.local/lib/python3.7/site-packages/airflow/example_dags/example_branch_labels.py
[2023-06-05T09:43:25.900+0000] {logging_mixin.py:149} INFO - [2023-06-05T09:43:25.900+0000] {dag.py:2726} INFO - Sync 1 DAGs
[2023-06-05T09:43:25.937+0000] {logging_mixin.py:149} INFO - [2023-06-05T09:43:25.937+0000] {dag.py:3490} INFO - Setting next_dagrun for example_branch_labels to 2023-06-04T00:00:00+00:00, run_after=2023-06-05T00:00:00+00:00
[2023-06-05T09:43:25.970+0000] {processor.py:179} INFO - Processing /home/airflow/.local/lib/python3.7/site-packages/airflow/example_dags/example_branch_labels.py took 0.137 seconds
[2023-06-05T09:43:56.143+0000] {processor.py:157} INFO - Started process (PID=15360) to work on /home/airflow/.local/lib/python3.7/site-packages/airflow/example_dags/example_branch_labels.py
[2023-06-05T09:43:56.149+0000] {processor.py:826} INFO - Processing file /home/airflow/.local/lib/python3.7/site-packages/airflow/example_dags/example_branch_labels.py for tasks to queue
[2023-06-05T09:43:56.159+0000] {logging_mixin.py:149} INFO - [2023-06-05T09:43:56.159+0000] {dagbag.py:541} INFO - Filling up the DagBag from /home/airflow/.local/lib/python3.7/site-packages/airflow/example_dags/example_branch_labels.py
[2023-06-05T09:43:56.183+0000] {processor.py:836} INFO - DAG(s) dict_keys(['example_branch_labels']) retrieved from /home/airflow/.local/lib/python3.7/site-packages/airflow/example_dags/example_branch_labels.py
[2023-06-05T09:43:56.213+0000] {logging_mixin.py:149} INFO - [2023-06-05T09:43:56.213+0000] {dag.py:2726} INFO - Sync 1 DAGs
[2023-06-05T09:43:56.262+0000] {logging_mixin.py:149} INFO - [2023-06-05T09:43:56.262+0000] {dag.py:3490} INFO - Setting next_dagrun for example_branch_labels to 2023-06-04T00:00:00+00:00, run_after=2023-06-05T00:00:00+00:00
[2023-06-05T09:43:56.295+0000] {processor.py:179} INFO - Processing /home/airflow/.local/lib/python3.7/site-packages/airflow/example_dags/example_branch_labels.py took 0.155 seconds
[2023-06-05T09:44:26.504+0000] {processor.py:157} INFO - Started process (PID=15421) to work on /home/airflow/.local/lib/python3.7/site-packages/airflow/example_dags/example_branch_labels.py
[2023-06-05T09:44:26.512+0000] {processor.py:826} INFO - Processing file /home/airflow/.local/lib/python3.7/site-packages/airflow/example_dags/example_branch_labels.py for tasks to queue
[2023-06-05T09:44:26.512+0000] {logging_mixin.py:149} INFO - [2023-06-05T09:44:26.512+0000] {dagbag.py:541} INFO - Filling up the DagBag from /home/airflow/.local/lib/python3.7/site-packages/airflow/example_dags/example_branch_labels.py
[2023-06-05T09:44:26.522+0000] {processor.py:836} INFO - DAG(s) dict_keys(['example_branch_labels']) retrieved from /home/airflow/.local/lib/python3.7/site-packages/airflow/example_dags/example_branch_labels.py
[2023-06-05T09:44:26.555+0000] {logging_mixin.py:149} INFO - [2023-06-05T09:44:26.555+0000] {dag.py:2726} INFO - Sync 1 DAGs
[2023-06-05T09:44:26.587+0000] {logging_mixin.py:149} INFO - [2023-06-05T09:44:26.586+0000] {dag.py:3490} INFO - Setting next_dagrun for example_branch_labels to 2023-06-04T00:00:00+00:00, run_after=2023-06-05T00:00:00+00:00
[2023-06-05T09:44:26.609+0000] {processor.py:179} INFO - Processing /home/airflow/.local/lib/python3.7/site-packages/airflow/example_dags/example_branch_labels.py took 0.108 seconds
[2023-06-05T09:44:56.984+0000] {processor.py:157} INFO - Started process (PID=15482) to work on /home/airflow/.local/lib/python3.7/site-packages/airflow/example_dags/example_branch_labels.py
[2023-06-05T09:44:56.985+0000] {processor.py:826} INFO - Processing file /home/airflow/.local/lib/python3.7/site-packages/airflow/example_dags/example_branch_labels.py for tasks to queue
[2023-06-05T09:44:56.986+0000] {logging_mixin.py:149} INFO - [2023-06-05T09:44:56.986+0000] {dagbag.py:541} INFO - Filling up the DagBag from /home/airflow/.local/lib/python3.7/site-packages/airflow/example_dags/example_branch_labels.py
[2023-06-05T09:44:56.997+0000] {processor.py:836} INFO - DAG(s) dict_keys(['example_branch_labels']) retrieved from /home/airflow/.local/lib/python3.7/site-packages/airflow/example_dags/example_branch_labels.py
[2023-06-05T09:44:57.025+0000] {logging_mixin.py:149} INFO - [2023-06-05T09:44:57.025+0000] {dag.py:2726} INFO - Sync 1 DAGs
[2023-06-05T09:44:57.059+0000] {logging_mixin.py:149} INFO - [2023-06-05T09:44:57.059+0000] {dag.py:3490} INFO - Setting next_dagrun for example_branch_labels to 2023-06-04T00:00:00+00:00, run_after=2023-06-05T00:00:00+00:00
[2023-06-05T09:44:57.082+0000] {processor.py:179} INFO - Processing /home/airflow/.local/lib/python3.7/site-packages/airflow/example_dags/example_branch_labels.py took 0.102 seconds
[2023-06-05T09:45:28.163+0000] {processor.py:157} INFO - Started process (PID=15551) to work on /home/airflow/.local/lib/python3.7/site-packages/airflow/example_dags/example_branch_labels.py
[2023-06-05T09:45:28.164+0000] {processor.py:826} INFO - Processing file /home/airflow/.local/lib/python3.7/site-packages/airflow/example_dags/example_branch_labels.py for tasks to queue
[2023-06-05T09:45:28.165+0000] {logging_mixin.py:149} INFO - [2023-06-05T09:45:28.164+0000] {dagbag.py:541} INFO - Filling up the DagBag from /home/airflow/.local/lib/python3.7/site-packages/airflow/example_dags/example_branch_labels.py
[2023-06-05T09:45:28.173+0000] {processor.py:836} INFO - DAG(s) dict_keys(['example_branch_labels']) retrieved from /home/airflow/.local/lib/python3.7/site-packages/airflow/example_dags/example_branch_labels.py
[2023-06-05T09:45:28.201+0000] {logging_mixin.py:149} INFO - [2023-06-05T09:45:28.201+0000] {dag.py:2726} INFO - Sync 1 DAGs
[2023-06-05T09:45:28.231+0000] {logging_mixin.py:149} INFO - [2023-06-05T09:45:28.231+0000] {dag.py:3490} INFO - Setting next_dagrun for example_branch_labels to 2023-06-04T00:00:00+00:00, run_after=2023-06-05T00:00:00+00:00
[2023-06-05T09:45:28.251+0000] {processor.py:179} INFO - Processing /home/airflow/.local/lib/python3.7/site-packages/airflow/example_dags/example_branch_labels.py took 0.091 seconds
[2023-06-05T09:45:58.727+0000] {processor.py:157} INFO - Started process (PID=15613) to work on /home/airflow/.local/lib/python3.7/site-packages/airflow/example_dags/example_branch_labels.py
[2023-06-05T09:45:58.728+0000] {processor.py:826} INFO - Processing file /home/airflow/.local/lib/python3.7/site-packages/airflow/example_dags/example_branch_labels.py for tasks to queue
[2023-06-05T09:45:58.728+0000] {logging_mixin.py:149} INFO - [2023-06-05T09:45:58.728+0000] {dagbag.py:541} INFO - Filling up the DagBag from /home/airflow/.local/lib/python3.7/site-packages/airflow/example_dags/example_branch_labels.py
[2023-06-05T09:45:58.736+0000] {processor.py:836} INFO - DAG(s) dict_keys(['example_branch_labels']) retrieved from /home/airflow/.local/lib/python3.7/site-packages/airflow/example_dags/example_branch_labels.py
[2023-06-05T09:45:58.764+0000] {logging_mixin.py:149} INFO - [2023-06-05T09:45:58.764+0000] {dag.py:2726} INFO - Sync 1 DAGs
[2023-06-05T09:45:58.800+0000] {logging_mixin.py:149} INFO - [2023-06-05T09:45:58.800+0000] {dag.py:3490} INFO - Setting next_dagrun for example_branch_labels to 2023-06-04T00:00:00+00:00, run_after=2023-06-05T00:00:00+00:00
[2023-06-05T09:45:58.827+0000] {processor.py:179} INFO - Processing /home/airflow/.local/lib/python3.7/site-packages/airflow/example_dags/example_branch_labels.py took 0.104 seconds
[2023-06-05T09:46:29.001+0000] {processor.py:157} INFO - Started process (PID=15674) to work on /home/airflow/.local/lib/python3.7/site-packages/airflow/example_dags/example_branch_labels.py
[2023-06-05T09:46:29.002+0000] {processor.py:826} INFO - Processing file /home/airflow/.local/lib/python3.7/site-packages/airflow/example_dags/example_branch_labels.py for tasks to queue
[2023-06-05T09:46:29.003+0000] {logging_mixin.py:149} INFO - [2023-06-05T09:46:29.003+0000] {dagbag.py:541} INFO - Filling up the DagBag from /home/airflow/.local/lib/python3.7/site-packages/airflow/example_dags/example_branch_labels.py
[2023-06-05T09:46:29.011+0000] {processor.py:836} INFO - DAG(s) dict_keys(['example_branch_labels']) retrieved from /home/airflow/.local/lib/python3.7/site-packages/airflow/example_dags/example_branch_labels.py
[2023-06-05T09:46:29.037+0000] {logging_mixin.py:149} INFO - [2023-06-05T09:46:29.037+0000] {dag.py:2726} INFO - Sync 1 DAGs
[2023-06-05T09:46:29.068+0000] {logging_mixin.py:149} INFO - [2023-06-05T09:46:29.068+0000] {dag.py:3490} INFO - Setting next_dagrun for example_branch_labels to 2023-06-04T00:00:00+00:00, run_after=2023-06-05T00:00:00+00:00
[2023-06-05T09:46:29.088+0000] {processor.py:179} INFO - Processing /home/airflow/.local/lib/python3.7/site-packages/airflow/example_dags/example_branch_labels.py took 0.090 seconds
[2023-06-05T09:46:59.523+0000] {processor.py:157} INFO - Started process (PID=15735) to work on /home/airflow/.local/lib/python3.7/site-packages/airflow/example_dags/example_branch_labels.py
[2023-06-05T09:46:59.524+0000] {processor.py:826} INFO - Processing file /home/airflow/.local/lib/python3.7/site-packages/airflow/example_dags/example_branch_labels.py for tasks to queue
[2023-06-05T09:46:59.525+0000] {logging_mixin.py:149} INFO - [2023-06-05T09:46:59.525+0000] {dagbag.py:541} INFO - Filling up the DagBag from /home/airflow/.local/lib/python3.7/site-packages/airflow/example_dags/example_branch_labels.py
[2023-06-05T09:46:59.533+0000] {processor.py:836} INFO - DAG(s) dict_keys(['example_branch_labels']) retrieved from /home/airflow/.local/lib/python3.7/site-packages/airflow/example_dags/example_branch_labels.py
[2023-06-05T09:46:59.560+0000] {logging_mixin.py:149} INFO - [2023-06-05T09:46:59.560+0000] {dag.py:2726} INFO - Sync 1 DAGs
[2023-06-05T09:46:59.589+0000] {logging_mixin.py:149} INFO - [2023-06-05T09:46:59.589+0000] {dag.py:3490} INFO - Setting next_dagrun for example_branch_labels to 2023-06-04T00:00:00+00:00, run_after=2023-06-05T00:00:00+00:00
[2023-06-05T09:46:59.608+0000] {processor.py:179} INFO - Processing /home/airflow/.local/lib/python3.7/site-packages/airflow/example_dags/example_branch_labels.py took 0.087 seconds
[2023-06-05T09:47:30.074+0000] {processor.py:157} INFO - Started process (PID=15797) to work on /home/airflow/.local/lib/python3.7/site-packages/airflow/example_dags/example_branch_labels.py
[2023-06-05T09:47:30.075+0000] {processor.py:826} INFO - Processing file /home/airflow/.local/lib/python3.7/site-packages/airflow/example_dags/example_branch_labels.py for tasks to queue
[2023-06-05T09:47:30.075+0000] {logging_mixin.py:149} INFO - [2023-06-05T09:47:30.075+0000] {dagbag.py:541} INFO - Filling up the DagBag from /home/airflow/.local/lib/python3.7/site-packages/airflow/example_dags/example_branch_labels.py
[2023-06-05T09:47:30.083+0000] {processor.py:836} INFO - DAG(s) dict_keys(['example_branch_labels']) retrieved from /home/airflow/.local/lib/python3.7/site-packages/airflow/example_dags/example_branch_labels.py
[2023-06-05T09:47:30.110+0000] {logging_mixin.py:149} INFO - [2023-06-05T09:47:30.110+0000] {dag.py:2726} INFO - Sync 1 DAGs
[2023-06-05T09:47:30.143+0000] {logging_mixin.py:149} INFO - [2023-06-05T09:47:30.143+0000] {dag.py:3490} INFO - Setting next_dagrun for example_branch_labels to 2023-06-04T00:00:00+00:00, run_after=2023-06-05T00:00:00+00:00
[2023-06-05T09:47:30.163+0000] {processor.py:179} INFO - Processing /home/airflow/.local/lib/python3.7/site-packages/airflow/example_dags/example_branch_labels.py took 0.093 seconds
[2023-06-05T09:48:00.673+0000] {processor.py:157} INFO - Started process (PID=15858) to work on /home/airflow/.local/lib/python3.7/site-packages/airflow/example_dags/example_branch_labels.py
[2023-06-05T09:48:00.674+0000] {processor.py:826} INFO - Processing file /home/airflow/.local/lib/python3.7/site-packages/airflow/example_dags/example_branch_labels.py for tasks to queue
[2023-06-05T09:48:00.675+0000] {logging_mixin.py:149} INFO - [2023-06-05T09:48:00.675+0000] {dagbag.py:541} INFO - Filling up the DagBag from /home/airflow/.local/lib/python3.7/site-packages/airflow/example_dags/example_branch_labels.py
[2023-06-05T09:48:00.682+0000] {processor.py:836} INFO - DAG(s) dict_keys(['example_branch_labels']) retrieved from /home/airflow/.local/lib/python3.7/site-packages/airflow/example_dags/example_branch_labels.py
[2023-06-05T09:48:00.708+0000] {logging_mixin.py:149} INFO - [2023-06-05T09:48:00.707+0000] {dag.py:2726} INFO - Sync 1 DAGs
[2023-06-05T09:48:00.737+0000] {logging_mixin.py:149} INFO - [2023-06-05T09:48:00.737+0000] {dag.py:3490} INFO - Setting next_dagrun for example_branch_labels to 2023-06-04T00:00:00+00:00, run_after=2023-06-05T00:00:00+00:00
[2023-06-05T09:48:00.757+0000] {processor.py:179} INFO - Processing /home/airflow/.local/lib/python3.7/site-packages/airflow/example_dags/example_branch_labels.py took 0.087 seconds
[2023-06-05T09:48:30.863+0000] {processor.py:157} INFO - Started process (PID=15918) to work on /home/airflow/.local/lib/python3.7/site-packages/airflow/example_dags/example_branch_labels.py
[2023-06-05T09:48:30.864+0000] {processor.py:826} INFO - Processing file /home/airflow/.local/lib/python3.7/site-packages/airflow/example_dags/example_branch_labels.py for tasks to queue
[2023-06-05T09:48:30.864+0000] {logging_mixin.py:149} INFO - [2023-06-05T09:48:30.864+0000] {dagbag.py:541} INFO - Filling up the DagBag from /home/airflow/.local/lib/python3.7/site-packages/airflow/example_dags/example_branch_labels.py
[2023-06-05T09:48:30.873+0000] {processor.py:836} INFO - DAG(s) dict_keys(['example_branch_labels']) retrieved from /home/airflow/.local/lib/python3.7/site-packages/airflow/example_dags/example_branch_labels.py
[2023-06-05T09:48:30.908+0000] {logging_mixin.py:149} INFO - [2023-06-05T09:48:30.907+0000] {dag.py:2726} INFO - Sync 1 DAGs
[2023-06-05T09:48:30.953+0000] {logging_mixin.py:149} INFO - [2023-06-05T09:48:30.953+0000] {dag.py:3490} INFO - Setting next_dagrun for example_branch_labels to 2023-06-04T00:00:00+00:00, run_after=2023-06-05T00:00:00+00:00
[2023-06-05T09:48:30.980+0000] {processor.py:179} INFO - Processing /home/airflow/.local/lib/python3.7/site-packages/airflow/example_dags/example_branch_labels.py took 0.120 seconds
[2023-06-05T09:49:01.381+0000] {processor.py:157} INFO - Started process (PID=15979) to work on /home/airflow/.local/lib/python3.7/site-packages/airflow/example_dags/example_branch_labels.py
[2023-06-05T09:49:01.382+0000] {processor.py:826} INFO - Processing file /home/airflow/.local/lib/python3.7/site-packages/airflow/example_dags/example_branch_labels.py for tasks to queue
[2023-06-05T09:49:01.383+0000] {logging_mixin.py:149} INFO - [2023-06-05T09:49:01.382+0000] {dagbag.py:541} INFO - Filling up the DagBag from /home/airflow/.local/lib/python3.7/site-packages/airflow/example_dags/example_branch_labels.py
[2023-06-05T09:49:01.393+0000] {processor.py:836} INFO - DAG(s) dict_keys(['example_branch_labels']) retrieved from /home/airflow/.local/lib/python3.7/site-packages/airflow/example_dags/example_branch_labels.py
[2023-06-05T09:49:01.426+0000] {logging_mixin.py:149} INFO - [2023-06-05T09:49:01.426+0000] {dag.py:2726} INFO - Sync 1 DAGs
[2023-06-05T09:49:01.467+0000] {logging_mixin.py:149} INFO - [2023-06-05T09:49:01.466+0000] {dag.py:3490} INFO - Setting next_dagrun for example_branch_labels to 2023-06-04T00:00:00+00:00, run_after=2023-06-05T00:00:00+00:00
[2023-06-05T09:49:01.487+0000] {processor.py:179} INFO - Processing /home/airflow/.local/lib/python3.7/site-packages/airflow/example_dags/example_branch_labels.py took 0.109 seconds
[2023-06-05T09:49:32.400+0000] {processor.py:157} INFO - Started process (PID=16040) to work on /home/airflow/.local/lib/python3.7/site-packages/airflow/example_dags/example_branch_labels.py
[2023-06-05T09:49:32.401+0000] {processor.py:826} INFO - Processing file /home/airflow/.local/lib/python3.7/site-packages/airflow/example_dags/example_branch_labels.py for tasks to queue
[2023-06-05T09:49:32.402+0000] {logging_mixin.py:149} INFO - [2023-06-05T09:49:32.402+0000] {dagbag.py:541} INFO - Filling up the DagBag from /home/airflow/.local/lib/python3.7/site-packages/airflow/example_dags/example_branch_labels.py
[2023-06-05T09:49:32.410+0000] {processor.py:836} INFO - DAG(s) dict_keys(['example_branch_labels']) retrieved from /home/airflow/.local/lib/python3.7/site-packages/airflow/example_dags/example_branch_labels.py
[2023-06-05T09:49:32.443+0000] {logging_mixin.py:149} INFO - [2023-06-05T09:49:32.443+0000] {dag.py:2726} INFO - Sync 1 DAGs
[2023-06-05T09:49:32.481+0000] {logging_mixin.py:149} INFO - [2023-06-05T09:49:32.481+0000] {dag.py:3490} INFO - Setting next_dagrun for example_branch_labels to 2023-06-04T00:00:00+00:00, run_after=2023-06-05T00:00:00+00:00
[2023-06-05T09:49:32.503+0000] {processor.py:179} INFO - Processing /home/airflow/.local/lib/python3.7/site-packages/airflow/example_dags/example_branch_labels.py took 0.105 seconds
[2023-06-05T09:50:03.233+0000] {processor.py:157} INFO - Started process (PID=16102) to work on /home/airflow/.local/lib/python3.7/site-packages/airflow/example_dags/example_branch_labels.py
[2023-06-05T09:50:03.234+0000] {processor.py:826} INFO - Processing file /home/airflow/.local/lib/python3.7/site-packages/airflow/example_dags/example_branch_labels.py for tasks to queue
[2023-06-05T09:50:03.237+0000] {logging_mixin.py:149} INFO - [2023-06-05T09:50:03.237+0000] {dagbag.py:541} INFO - Filling up the DagBag from /home/airflow/.local/lib/python3.7/site-packages/airflow/example_dags/example_branch_labels.py
[2023-06-05T09:50:03.248+0000] {processor.py:836} INFO - DAG(s) dict_keys(['example_branch_labels']) retrieved from /home/airflow/.local/lib/python3.7/site-packages/airflow/example_dags/example_branch_labels.py
[2023-06-05T09:50:03.278+0000] {logging_mixin.py:149} INFO - [2023-06-05T09:50:03.278+0000] {dag.py:2726} INFO - Sync 1 DAGs
[2023-06-05T09:50:03.315+0000] {logging_mixin.py:149} INFO - [2023-06-05T09:50:03.314+0000] {dag.py:3490} INFO - Setting next_dagrun for example_branch_labels to 2023-06-04T00:00:00+00:00, run_after=2023-06-05T00:00:00+00:00
[2023-06-05T09:50:03.337+0000] {processor.py:179} INFO - Processing /home/airflow/.local/lib/python3.7/site-packages/airflow/example_dags/example_branch_labels.py took 0.107 seconds
[2023-06-05T09:50:34.044+0000] {processor.py:157} INFO - Started process (PID=16163) to work on /home/airflow/.local/lib/python3.7/site-packages/airflow/example_dags/example_branch_labels.py
[2023-06-05T09:50:34.045+0000] {processor.py:826} INFO - Processing file /home/airflow/.local/lib/python3.7/site-packages/airflow/example_dags/example_branch_labels.py for tasks to queue
[2023-06-05T09:50:34.046+0000] {logging_mixin.py:149} INFO - [2023-06-05T09:50:34.046+0000] {dagbag.py:541} INFO - Filling up the DagBag from /home/airflow/.local/lib/python3.7/site-packages/airflow/example_dags/example_branch_labels.py
[2023-06-05T09:50:34.054+0000] {processor.py:836} INFO - DAG(s) dict_keys(['example_branch_labels']) retrieved from /home/airflow/.local/lib/python3.7/site-packages/airflow/example_dags/example_branch_labels.py
[2023-06-05T09:50:34.084+0000] {logging_mixin.py:149} INFO - [2023-06-05T09:50:34.083+0000] {dag.py:2726} INFO - Sync 1 DAGs
[2023-06-05T09:50:34.117+0000] {logging_mixin.py:149} INFO - [2023-06-05T09:50:34.117+0000] {dag.py:3490} INFO - Setting next_dagrun for example_branch_labels to 2023-06-04T00:00:00+00:00, run_after=2023-06-05T00:00:00+00:00
[2023-06-05T09:50:34.139+0000] {processor.py:179} INFO - Processing /home/airflow/.local/lib/python3.7/site-packages/airflow/example_dags/example_branch_labels.py took 0.098 seconds
[2023-06-05T09:51:04.865+0000] {processor.py:157} INFO - Started process (PID=16225) to work on /home/airflow/.local/lib/python3.7/site-packages/airflow/example_dags/example_branch_labels.py
[2023-06-05T09:51:04.866+0000] {processor.py:826} INFO - Processing file /home/airflow/.local/lib/python3.7/site-packages/airflow/example_dags/example_branch_labels.py for tasks to queue
[2023-06-05T09:51:04.866+0000] {logging_mixin.py:149} INFO - [2023-06-05T09:51:04.866+0000] {dagbag.py:541} INFO - Filling up the DagBag from /home/airflow/.local/lib/python3.7/site-packages/airflow/example_dags/example_branch_labels.py
[2023-06-05T09:51:04.876+0000] {processor.py:836} INFO - DAG(s) dict_keys(['example_branch_labels']) retrieved from /home/airflow/.local/lib/python3.7/site-packages/airflow/example_dags/example_branch_labels.py
[2023-06-05T09:51:04.909+0000] {logging_mixin.py:149} INFO - [2023-06-05T09:51:04.909+0000] {dag.py:2726} INFO - Sync 1 DAGs
[2023-06-05T09:51:04.942+0000] {logging_mixin.py:149} INFO - [2023-06-05T09:51:04.941+0000] {dag.py:3490} INFO - Setting next_dagrun for example_branch_labels to 2023-06-04T00:00:00+00:00, run_after=2023-06-05T00:00:00+00:00
[2023-06-05T09:51:04.963+0000] {processor.py:179} INFO - Processing /home/airflow/.local/lib/python3.7/site-packages/airflow/example_dags/example_branch_labels.py took 0.101 seconds
[2023-06-05T09:51:35.218+0000] {processor.py:157} INFO - Started process (PID=16286) to work on /home/airflow/.local/lib/python3.7/site-packages/airflow/example_dags/example_branch_labels.py
[2023-06-05T09:51:35.218+0000] {processor.py:826} INFO - Processing file /home/airflow/.local/lib/python3.7/site-packages/airflow/example_dags/example_branch_labels.py for tasks to queue
[2023-06-05T09:51:35.219+0000] {logging_mixin.py:149} INFO - [2023-06-05T09:51:35.219+0000] {dagbag.py:541} INFO - Filling up the DagBag from /home/airflow/.local/lib/python3.7/site-packages/airflow/example_dags/example_branch_labels.py
[2023-06-05T09:51:35.227+0000] {processor.py:836} INFO - DAG(s) dict_keys(['example_branch_labels']) retrieved from /home/airflow/.local/lib/python3.7/site-packages/airflow/example_dags/example_branch_labels.py
[2023-06-05T09:51:35.259+0000] {logging_mixin.py:149} INFO - [2023-06-05T09:51:35.259+0000] {dag.py:2726} INFO - Sync 1 DAGs
[2023-06-05T09:51:35.298+0000] {logging_mixin.py:149} INFO - [2023-06-05T09:51:35.298+0000] {dag.py:3490} INFO - Setting next_dagrun for example_branch_labels to 2023-06-04T00:00:00+00:00, run_after=2023-06-05T00:00:00+00:00
[2023-06-05T09:51:35.321+0000] {processor.py:179} INFO - Processing /home/airflow/.local/lib/python3.7/site-packages/airflow/example_dags/example_branch_labels.py took 0.106 seconds
[2023-06-05T09:52:05.589+0000] {processor.py:157} INFO - Started process (PID=16347) to work on /home/airflow/.local/lib/python3.7/site-packages/airflow/example_dags/example_branch_labels.py
[2023-06-05T09:52:05.590+0000] {processor.py:826} INFO - Processing file /home/airflow/.local/lib/python3.7/site-packages/airflow/example_dags/example_branch_labels.py for tasks to queue
[2023-06-05T09:52:05.591+0000] {logging_mixin.py:149} INFO - [2023-06-05T09:52:05.591+0000] {dagbag.py:541} INFO - Filling up the DagBag from /home/airflow/.local/lib/python3.7/site-packages/airflow/example_dags/example_branch_labels.py
[2023-06-05T09:52:05.599+0000] {processor.py:836} INFO - DAG(s) dict_keys(['example_branch_labels']) retrieved from /home/airflow/.local/lib/python3.7/site-packages/airflow/example_dags/example_branch_labels.py
[2023-06-05T09:52:05.629+0000] {logging_mixin.py:149} INFO - [2023-06-05T09:52:05.629+0000] {dag.py:2726} INFO - Sync 1 DAGs
[2023-06-05T09:52:05.663+0000] {logging_mixin.py:149} INFO - [2023-06-05T09:52:05.663+0000] {dag.py:3490} INFO - Setting next_dagrun for example_branch_labels to 2023-06-04T00:00:00+00:00, run_after=2023-06-05T00:00:00+00:00
[2023-06-05T09:52:05.686+0000] {processor.py:179} INFO - Processing /home/airflow/.local/lib/python3.7/site-packages/airflow/example_dags/example_branch_labels.py took 0.099 seconds
[2023-06-05T09:52:36.219+0000] {processor.py:157} INFO - Started process (PID=16408) to work on /home/airflow/.local/lib/python3.7/site-packages/airflow/example_dags/example_branch_labels.py
[2023-06-05T09:52:36.219+0000] {processor.py:826} INFO - Processing file /home/airflow/.local/lib/python3.7/site-packages/airflow/example_dags/example_branch_labels.py for tasks to queue
[2023-06-05T09:52:36.220+0000] {logging_mixin.py:149} INFO - [2023-06-05T09:52:36.220+0000] {dagbag.py:541} INFO - Filling up the DagBag from /home/airflow/.local/lib/python3.7/site-packages/airflow/example_dags/example_branch_labels.py
[2023-06-05T09:52:36.228+0000] {processor.py:836} INFO - DAG(s) dict_keys(['example_branch_labels']) retrieved from /home/airflow/.local/lib/python3.7/site-packages/airflow/example_dags/example_branch_labels.py
[2023-06-05T09:52:36.255+0000] {logging_mixin.py:149} INFO - [2023-06-05T09:52:36.255+0000] {dag.py:2726} INFO - Sync 1 DAGs
[2023-06-05T09:52:36.287+0000] {logging_mixin.py:149} INFO - [2023-06-05T09:52:36.287+0000] {dag.py:3490} INFO - Setting next_dagrun for example_branch_labels to 2023-06-04T00:00:00+00:00, run_after=2023-06-05T00:00:00+00:00
[2023-06-05T09:52:36.311+0000] {processor.py:179} INFO - Processing /home/airflow/.local/lib/python3.7/site-packages/airflow/example_dags/example_branch_labels.py took 0.096 seconds
[2023-06-05T09:53:06.476+0000] {processor.py:157} INFO - Started process (PID=16470) to work on /home/airflow/.local/lib/python3.7/site-packages/airflow/example_dags/example_branch_labels.py
[2023-06-05T09:53:06.477+0000] {processor.py:826} INFO - Processing file /home/airflow/.local/lib/python3.7/site-packages/airflow/example_dags/example_branch_labels.py for tasks to queue
[2023-06-05T09:53:06.478+0000] {logging_mixin.py:149} INFO - [2023-06-05T09:53:06.478+0000] {dagbag.py:541} INFO - Filling up the DagBag from /home/airflow/.local/lib/python3.7/site-packages/airflow/example_dags/example_branch_labels.py
[2023-06-05T09:53:06.487+0000] {processor.py:836} INFO - DAG(s) dict_keys(['example_branch_labels']) retrieved from /home/airflow/.local/lib/python3.7/site-packages/airflow/example_dags/example_branch_labels.py
[2023-06-05T09:53:06.514+0000] {logging_mixin.py:149} INFO - [2023-06-05T09:53:06.513+0000] {dag.py:2726} INFO - Sync 1 DAGs
[2023-06-05T09:53:06.549+0000] {logging_mixin.py:149} INFO - [2023-06-05T09:53:06.548+0000] {dag.py:3490} INFO - Setting next_dagrun for example_branch_labels to 2023-06-04T00:00:00+00:00, run_after=2023-06-05T00:00:00+00:00
[2023-06-05T09:53:06.572+0000] {processor.py:179} INFO - Processing /home/airflow/.local/lib/python3.7/site-packages/airflow/example_dags/example_branch_labels.py took 0.099 seconds
[2023-06-05T09:53:37.005+0000] {processor.py:157} INFO - Started process (PID=16531) to work on /home/airflow/.local/lib/python3.7/site-packages/airflow/example_dags/example_branch_labels.py
[2023-06-05T09:53:37.005+0000] {processor.py:826} INFO - Processing file /home/airflow/.local/lib/python3.7/site-packages/airflow/example_dags/example_branch_labels.py for tasks to queue
[2023-06-05T09:53:37.006+0000] {logging_mixin.py:149} INFO - [2023-06-05T09:53:37.006+0000] {dagbag.py:541} INFO - Filling up the DagBag from /home/airflow/.local/lib/python3.7/site-packages/airflow/example_dags/example_branch_labels.py
[2023-06-05T09:53:37.017+0000] {processor.py:836} INFO - DAG(s) dict_keys(['example_branch_labels']) retrieved from /home/airflow/.local/lib/python3.7/site-packages/airflow/example_dags/example_branch_labels.py
[2023-06-05T09:53:37.052+0000] {logging_mixin.py:149} INFO - [2023-06-05T09:53:37.052+0000] {dag.py:2726} INFO - Sync 1 DAGs
[2023-06-05T09:53:37.087+0000] {logging_mixin.py:149} INFO - [2023-06-05T09:53:37.086+0000] {dag.py:3490} INFO - Setting next_dagrun for example_branch_labels to 2023-06-04T00:00:00+00:00, run_after=2023-06-05T00:00:00+00:00
[2023-06-05T09:53:37.115+0000] {processor.py:179} INFO - Processing /home/airflow/.local/lib/python3.7/site-packages/airflow/example_dags/example_branch_labels.py took 0.114 seconds
[2023-06-05T09:54:07.242+0000] {processor.py:157} INFO - Started process (PID=16592) to work on /home/airflow/.local/lib/python3.7/site-packages/airflow/example_dags/example_branch_labels.py
[2023-06-05T09:54:07.243+0000] {processor.py:826} INFO - Processing file /home/airflow/.local/lib/python3.7/site-packages/airflow/example_dags/example_branch_labels.py for tasks to queue
[2023-06-05T09:54:07.243+0000] {logging_mixin.py:149} INFO - [2023-06-05T09:54:07.243+0000] {dagbag.py:541} INFO - Filling up the DagBag from /home/airflow/.local/lib/python3.7/site-packages/airflow/example_dags/example_branch_labels.py
[2023-06-05T09:54:07.251+0000] {processor.py:836} INFO - DAG(s) dict_keys(['example_branch_labels']) retrieved from /home/airflow/.local/lib/python3.7/site-packages/airflow/example_dags/example_branch_labels.py
[2023-06-05T09:54:07.279+0000] {logging_mixin.py:149} INFO - [2023-06-05T09:54:07.279+0000] {dag.py:2726} INFO - Sync 1 DAGs
[2023-06-05T09:54:07.312+0000] {logging_mixin.py:149} INFO - [2023-06-05T09:54:07.312+0000] {dag.py:3490} INFO - Setting next_dagrun for example_branch_labels to 2023-06-04T00:00:00+00:00, run_after=2023-06-05T00:00:00+00:00
[2023-06-05T09:54:07.345+0000] {processor.py:179} INFO - Processing /home/airflow/.local/lib/python3.7/site-packages/airflow/example_dags/example_branch_labels.py took 0.106 seconds
[2023-06-05T09:54:37.878+0000] {processor.py:157} INFO - Started process (PID=16653) to work on /home/airflow/.local/lib/python3.7/site-packages/airflow/example_dags/example_branch_labels.py
[2023-06-05T09:54:37.879+0000] {processor.py:826} INFO - Processing file /home/airflow/.local/lib/python3.7/site-packages/airflow/example_dags/example_branch_labels.py for tasks to queue
[2023-06-05T09:54:37.879+0000] {logging_mixin.py:149} INFO - [2023-06-05T09:54:37.879+0000] {dagbag.py:541} INFO - Filling up the DagBag from /home/airflow/.local/lib/python3.7/site-packages/airflow/example_dags/example_branch_labels.py
[2023-06-05T09:54:37.888+0000] {processor.py:836} INFO - DAG(s) dict_keys(['example_branch_labels']) retrieved from /home/airflow/.local/lib/python3.7/site-packages/airflow/example_dags/example_branch_labels.py
[2023-06-05T09:54:37.915+0000] {logging_mixin.py:149} INFO - [2023-06-05T09:54:37.915+0000] {dag.py:2726} INFO - Sync 1 DAGs
[2023-06-05T09:54:37.946+0000] {logging_mixin.py:149} INFO - [2023-06-05T09:54:37.946+0000] {dag.py:3490} INFO - Setting next_dagrun for example_branch_labels to 2023-06-04T00:00:00+00:00, run_after=2023-06-05T00:00:00+00:00
[2023-06-05T09:54:37.970+0000] {processor.py:179} INFO - Processing /home/airflow/.local/lib/python3.7/site-packages/airflow/example_dags/example_branch_labels.py took 0.095 seconds
[2023-06-05T09:55:08.261+0000] {processor.py:157} INFO - Started process (PID=16715) to work on /home/airflow/.local/lib/python3.7/site-packages/airflow/example_dags/example_branch_labels.py
[2023-06-05T09:55:08.262+0000] {processor.py:826} INFO - Processing file /home/airflow/.local/lib/python3.7/site-packages/airflow/example_dags/example_branch_labels.py for tasks to queue
[2023-06-05T09:55:08.262+0000] {logging_mixin.py:149} INFO - [2023-06-05T09:55:08.262+0000] {dagbag.py:541} INFO - Filling up the DagBag from /home/airflow/.local/lib/python3.7/site-packages/airflow/example_dags/example_branch_labels.py
[2023-06-05T09:55:08.271+0000] {processor.py:836} INFO - DAG(s) dict_keys(['example_branch_labels']) retrieved from /home/airflow/.local/lib/python3.7/site-packages/airflow/example_dags/example_branch_labels.py
[2023-06-05T09:55:08.298+0000] {logging_mixin.py:149} INFO - [2023-06-05T09:55:08.298+0000] {dag.py:2726} INFO - Sync 1 DAGs
[2023-06-05T09:55:08.329+0000] {logging_mixin.py:149} INFO - [2023-06-05T09:55:08.329+0000] {dag.py:3490} INFO - Setting next_dagrun for example_branch_labels to 2023-06-04T00:00:00+00:00, run_after=2023-06-05T00:00:00+00:00
[2023-06-05T09:55:08.351+0000] {processor.py:179} INFO - Processing /home/airflow/.local/lib/python3.7/site-packages/airflow/example_dags/example_branch_labels.py took 0.093 seconds
[2023-06-05T09:55:38.769+0000] {processor.py:157} INFO - Started process (PID=16776) to work on /home/airflow/.local/lib/python3.7/site-packages/airflow/example_dags/example_branch_labels.py
[2023-06-05T09:55:38.770+0000] {processor.py:826} INFO - Processing file /home/airflow/.local/lib/python3.7/site-packages/airflow/example_dags/example_branch_labels.py for tasks to queue
[2023-06-05T09:55:38.771+0000] {logging_mixin.py:149} INFO - [2023-06-05T09:55:38.771+0000] {dagbag.py:541} INFO - Filling up the DagBag from /home/airflow/.local/lib/python3.7/site-packages/airflow/example_dags/example_branch_labels.py
[2023-06-05T09:55:38.780+0000] {processor.py:836} INFO - DAG(s) dict_keys(['example_branch_labels']) retrieved from /home/airflow/.local/lib/python3.7/site-packages/airflow/example_dags/example_branch_labels.py
[2023-06-05T09:55:38.810+0000] {logging_mixin.py:149} INFO - [2023-06-05T09:55:38.810+0000] {dag.py:2726} INFO - Sync 1 DAGs
[2023-06-05T09:55:38.850+0000] {logging_mixin.py:149} INFO - [2023-06-05T09:55:38.850+0000] {dag.py:3490} INFO - Setting next_dagrun for example_branch_labels to 2023-06-04T00:00:00+00:00, run_after=2023-06-05T00:00:00+00:00
[2023-06-05T09:55:38.878+0000] {processor.py:179} INFO - Processing /home/airflow/.local/lib/python3.7/site-packages/airflow/example_dags/example_branch_labels.py took 0.113 seconds
[2023-06-05T09:56:09.205+0000] {processor.py:157} INFO - Started process (PID=16838) to work on /home/airflow/.local/lib/python3.7/site-packages/airflow/example_dags/example_branch_labels.py
[2023-06-05T09:56:09.206+0000] {processor.py:826} INFO - Processing file /home/airflow/.local/lib/python3.7/site-packages/airflow/example_dags/example_branch_labels.py for tasks to queue
[2023-06-05T09:56:09.206+0000] {logging_mixin.py:149} INFO - [2023-06-05T09:56:09.206+0000] {dagbag.py:541} INFO - Filling up the DagBag from /home/airflow/.local/lib/python3.7/site-packages/airflow/example_dags/example_branch_labels.py
[2023-06-05T09:56:09.215+0000] {processor.py:836} INFO - DAG(s) dict_keys(['example_branch_labels']) retrieved from /home/airflow/.local/lib/python3.7/site-packages/airflow/example_dags/example_branch_labels.py
[2023-06-05T09:56:09.243+0000] {logging_mixin.py:149} INFO - [2023-06-05T09:56:09.243+0000] {dag.py:2726} INFO - Sync 1 DAGs
[2023-06-05T09:56:09.277+0000] {logging_mixin.py:149} INFO - [2023-06-05T09:56:09.277+0000] {dag.py:3490} INFO - Setting next_dagrun for example_branch_labels to 2023-06-04T00:00:00+00:00, run_after=2023-06-05T00:00:00+00:00
[2023-06-05T09:56:09.304+0000] {processor.py:179} INFO - Processing /home/airflow/.local/lib/python3.7/site-packages/airflow/example_dags/example_branch_labels.py took 0.102 seconds
[2023-06-05T09:56:39.678+0000] {processor.py:157} INFO - Started process (PID=16901) to work on /home/airflow/.local/lib/python3.7/site-packages/airflow/example_dags/example_branch_labels.py
[2023-06-05T09:56:39.678+0000] {processor.py:826} INFO - Processing file /home/airflow/.local/lib/python3.7/site-packages/airflow/example_dags/example_branch_labels.py for tasks to queue
[2023-06-05T09:56:39.679+0000] {logging_mixin.py:149} INFO - [2023-06-05T09:56:39.679+0000] {dagbag.py:541} INFO - Filling up the DagBag from /home/airflow/.local/lib/python3.7/site-packages/airflow/example_dags/example_branch_labels.py
[2023-06-05T09:56:39.687+0000] {processor.py:836} INFO - DAG(s) dict_keys(['example_branch_labels']) retrieved from /home/airflow/.local/lib/python3.7/site-packages/airflow/example_dags/example_branch_labels.py
[2023-06-05T09:56:39.715+0000] {logging_mixin.py:149} INFO - [2023-06-05T09:56:39.715+0000] {dag.py:2726} INFO - Sync 1 DAGs
[2023-06-05T09:56:39.748+0000] {logging_mixin.py:149} INFO - [2023-06-05T09:56:39.748+0000] {dag.py:3490} INFO - Setting next_dagrun for example_branch_labels to 2023-06-04T00:00:00+00:00, run_after=2023-06-05T00:00:00+00:00
[2023-06-05T09:56:39.771+0000] {processor.py:179} INFO - Processing /home/airflow/.local/lib/python3.7/site-packages/airflow/example_dags/example_branch_labels.py took 0.097 seconds
[2023-06-05T09:57:10.218+0000] {processor.py:157} INFO - Started process (PID=16962) to work on /home/airflow/.local/lib/python3.7/site-packages/airflow/example_dags/example_branch_labels.py
[2023-06-05T09:57:10.218+0000] {processor.py:826} INFO - Processing file /home/airflow/.local/lib/python3.7/site-packages/airflow/example_dags/example_branch_labels.py for tasks to queue
[2023-06-05T09:57:10.219+0000] {logging_mixin.py:149} INFO - [2023-06-05T09:57:10.219+0000] {dagbag.py:541} INFO - Filling up the DagBag from /home/airflow/.local/lib/python3.7/site-packages/airflow/example_dags/example_branch_labels.py
[2023-06-05T09:57:10.228+0000] {processor.py:836} INFO - DAG(s) dict_keys(['example_branch_labels']) retrieved from /home/airflow/.local/lib/python3.7/site-packages/airflow/example_dags/example_branch_labels.py
[2023-06-05T09:57:10.260+0000] {logging_mixin.py:149} INFO - [2023-06-05T09:57:10.260+0000] {dag.py:2726} INFO - Sync 1 DAGs
[2023-06-05T09:57:10.297+0000] {logging_mixin.py:149} INFO - [2023-06-05T09:57:10.297+0000] {dag.py:3490} INFO - Setting next_dagrun for example_branch_labels to 2023-06-04T00:00:00+00:00, run_after=2023-06-05T00:00:00+00:00
[2023-06-05T09:57:10.318+0000] {processor.py:179} INFO - Processing /home/airflow/.local/lib/python3.7/site-packages/airflow/example_dags/example_branch_labels.py took 0.103 seconds
[2023-06-05T09:57:41.240+0000] {processor.py:157} INFO - Started process (PID=17023) to work on /home/airflow/.local/lib/python3.7/site-packages/airflow/example_dags/example_branch_labels.py
[2023-06-05T09:57:41.240+0000] {processor.py:826} INFO - Processing file /home/airflow/.local/lib/python3.7/site-packages/airflow/example_dags/example_branch_labels.py for tasks to queue
[2023-06-05T09:57:41.241+0000] {logging_mixin.py:149} INFO - [2023-06-05T09:57:41.241+0000] {dagbag.py:541} INFO - Filling up the DagBag from /home/airflow/.local/lib/python3.7/site-packages/airflow/example_dags/example_branch_labels.py
[2023-06-05T09:57:41.250+0000] {processor.py:836} INFO - DAG(s) dict_keys(['example_branch_labels']) retrieved from /home/airflow/.local/lib/python3.7/site-packages/airflow/example_dags/example_branch_labels.py
[2023-06-05T09:57:41.282+0000] {logging_mixin.py:149} INFO - [2023-06-05T09:57:41.281+0000] {dag.py:2726} INFO - Sync 1 DAGs
[2023-06-05T09:57:41.316+0000] {logging_mixin.py:149} INFO - [2023-06-05T09:57:41.316+0000] {dag.py:3490} INFO - Setting next_dagrun for example_branch_labels to 2023-06-04T00:00:00+00:00, run_after=2023-06-05T00:00:00+00:00
[2023-06-05T09:57:41.339+0000] {processor.py:179} INFO - Processing /home/airflow/.local/lib/python3.7/site-packages/airflow/example_dags/example_branch_labels.py took 0.102 seconds
[2023-06-05T09:58:12.133+0000] {processor.py:157} INFO - Started process (PID=17084) to work on /home/airflow/.local/lib/python3.7/site-packages/airflow/example_dags/example_branch_labels.py
[2023-06-05T09:58:12.135+0000] {processor.py:826} INFO - Processing file /home/airflow/.local/lib/python3.7/site-packages/airflow/example_dags/example_branch_labels.py for tasks to queue
[2023-06-05T09:58:12.136+0000] {logging_mixin.py:149} INFO - [2023-06-05T09:58:12.136+0000] {dagbag.py:541} INFO - Filling up the DagBag from /home/airflow/.local/lib/python3.7/site-packages/airflow/example_dags/example_branch_labels.py
[2023-06-05T09:58:12.148+0000] {processor.py:836} INFO - DAG(s) dict_keys(['example_branch_labels']) retrieved from /home/airflow/.local/lib/python3.7/site-packages/airflow/example_dags/example_branch_labels.py
[2023-06-05T09:58:12.176+0000] {logging_mixin.py:149} INFO - [2023-06-05T09:58:12.176+0000] {dag.py:2726} INFO - Sync 1 DAGs
[2023-06-05T09:58:12.205+0000] {logging_mixin.py:149} INFO - [2023-06-05T09:58:12.205+0000] {dag.py:3490} INFO - Setting next_dagrun for example_branch_labels to 2023-06-04T00:00:00+00:00, run_after=2023-06-05T00:00:00+00:00
[2023-06-05T09:58:12.225+0000] {processor.py:179} INFO - Processing /home/airflow/.local/lib/python3.7/site-packages/airflow/example_dags/example_branch_labels.py took 0.099 seconds
[2023-06-05T09:58:42.859+0000] {processor.py:157} INFO - Started process (PID=17145) to work on /home/airflow/.local/lib/python3.7/site-packages/airflow/example_dags/example_branch_labels.py
[2023-06-05T09:58:42.860+0000] {processor.py:826} INFO - Processing file /home/airflow/.local/lib/python3.7/site-packages/airflow/example_dags/example_branch_labels.py for tasks to queue
[2023-06-05T09:58:42.861+0000] {logging_mixin.py:149} INFO - [2023-06-05T09:58:42.861+0000] {dagbag.py:541} INFO - Filling up the DagBag from /home/airflow/.local/lib/python3.7/site-packages/airflow/example_dags/example_branch_labels.py
[2023-06-05T09:58:42.874+0000] {processor.py:836} INFO - DAG(s) dict_keys(['example_branch_labels']) retrieved from /home/airflow/.local/lib/python3.7/site-packages/airflow/example_dags/example_branch_labels.py
[2023-06-05T09:58:42.903+0000] {logging_mixin.py:149} INFO - [2023-06-05T09:58:42.902+0000] {dag.py:2726} INFO - Sync 1 DAGs
[2023-06-05T09:58:42.935+0000] {logging_mixin.py:149} INFO - [2023-06-05T09:58:42.935+0000] {dag.py:3490} INFO - Setting next_dagrun for example_branch_labels to 2023-06-04T00:00:00+00:00, run_after=2023-06-05T00:00:00+00:00
[2023-06-05T09:58:42.959+0000] {processor.py:179} INFO - Processing /home/airflow/.local/lib/python3.7/site-packages/airflow/example_dags/example_branch_labels.py took 0.108 seconds
[2023-06-05T09:59:13.484+0000] {processor.py:157} INFO - Started process (PID=17206) to work on /home/airflow/.local/lib/python3.7/site-packages/airflow/example_dags/example_branch_labels.py
[2023-06-05T09:59:13.485+0000] {processor.py:826} INFO - Processing file /home/airflow/.local/lib/python3.7/site-packages/airflow/example_dags/example_branch_labels.py for tasks to queue
[2023-06-05T09:59:13.486+0000] {logging_mixin.py:149} INFO - [2023-06-05T09:59:13.486+0000] {dagbag.py:541} INFO - Filling up the DagBag from /home/airflow/.local/lib/python3.7/site-packages/airflow/example_dags/example_branch_labels.py
[2023-06-05T09:59:13.503+0000] {processor.py:836} INFO - DAG(s) dict_keys(['example_branch_labels']) retrieved from /home/airflow/.local/lib/python3.7/site-packages/airflow/example_dags/example_branch_labels.py
[2023-06-05T09:59:13.531+0000] {logging_mixin.py:149} INFO - [2023-06-05T09:59:13.530+0000] {dag.py:2726} INFO - Sync 1 DAGs
[2023-06-05T09:59:13.560+0000] {logging_mixin.py:149} INFO - [2023-06-05T09:59:13.560+0000] {dag.py:3490} INFO - Setting next_dagrun for example_branch_labels to 2023-06-04T00:00:00+00:00, run_after=2023-06-05T00:00:00+00:00
[2023-06-05T09:59:13.580+0000] {processor.py:179} INFO - Processing /home/airflow/.local/lib/python3.7/site-packages/airflow/example_dags/example_branch_labels.py took 0.105 seconds
[2023-06-05T09:59:44.048+0000] {processor.py:157} INFO - Started process (PID=17267) to work on /home/airflow/.local/lib/python3.7/site-packages/airflow/example_dags/example_branch_labels.py
[2023-06-05T09:59:44.049+0000] {processor.py:826} INFO - Processing file /home/airflow/.local/lib/python3.7/site-packages/airflow/example_dags/example_branch_labels.py for tasks to queue
[2023-06-05T09:59:44.050+0000] {logging_mixin.py:149} INFO - [2023-06-05T09:59:44.050+0000] {dagbag.py:541} INFO - Filling up the DagBag from /home/airflow/.local/lib/python3.7/site-packages/airflow/example_dags/example_branch_labels.py
[2023-06-05T09:59:44.060+0000] {processor.py:836} INFO - DAG(s) dict_keys(['example_branch_labels']) retrieved from /home/airflow/.local/lib/python3.7/site-packages/airflow/example_dags/example_branch_labels.py
[2023-06-05T09:59:44.090+0000] {logging_mixin.py:149} INFO - [2023-06-05T09:59:44.090+0000] {dag.py:2726} INFO - Sync 1 DAGs
[2023-06-05T09:59:44.126+0000] {logging_mixin.py:149} INFO - [2023-06-05T09:59:44.125+0000] {dag.py:3490} INFO - Setting next_dagrun for example_branch_labels to 2023-06-04T00:00:00+00:00, run_after=2023-06-05T00:00:00+00:00
[2023-06-05T09:59:44.154+0000] {processor.py:179} INFO - Processing /home/airflow/.local/lib/python3.7/site-packages/airflow/example_dags/example_branch_labels.py took 0.109 seconds
[2023-06-05T10:00:14.511+0000] {processor.py:157} INFO - Started process (PID=17328) to work on /home/airflow/.local/lib/python3.7/site-packages/airflow/example_dags/example_branch_labels.py
[2023-06-05T10:00:14.512+0000] {processor.py:826} INFO - Processing file /home/airflow/.local/lib/python3.7/site-packages/airflow/example_dags/example_branch_labels.py for tasks to queue
[2023-06-05T10:00:14.513+0000] {logging_mixin.py:149} INFO - [2023-06-05T10:00:14.513+0000] {dagbag.py:541} INFO - Filling up the DagBag from /home/airflow/.local/lib/python3.7/site-packages/airflow/example_dags/example_branch_labels.py
[2023-06-05T10:00:14.525+0000] {processor.py:836} INFO - DAG(s) dict_keys(['example_branch_labels']) retrieved from /home/airflow/.local/lib/python3.7/site-packages/airflow/example_dags/example_branch_labels.py
[2023-06-05T10:00:14.556+0000] {logging_mixin.py:149} INFO - [2023-06-05T10:00:14.556+0000] {dag.py:2726} INFO - Sync 1 DAGs
[2023-06-05T10:00:14.589+0000] {logging_mixin.py:149} INFO - [2023-06-05T10:00:14.589+0000] {dag.py:3490} INFO - Setting next_dagrun for example_branch_labels to 2023-06-04T00:00:00+00:00, run_after=2023-06-05T00:00:00+00:00
[2023-06-05T10:00:14.613+0000] {processor.py:179} INFO - Processing /home/airflow/.local/lib/python3.7/site-packages/airflow/example_dags/example_branch_labels.py took 0.106 seconds
[2023-06-05T10:00:45.140+0000] {processor.py:157} INFO - Started process (PID=17389) to work on /home/airflow/.local/lib/python3.7/site-packages/airflow/example_dags/example_branch_labels.py
[2023-06-05T10:00:45.141+0000] {processor.py:826} INFO - Processing file /home/airflow/.local/lib/python3.7/site-packages/airflow/example_dags/example_branch_labels.py for tasks to queue
[2023-06-05T10:00:45.141+0000] {logging_mixin.py:149} INFO - [2023-06-05T10:00:45.141+0000] {dagbag.py:541} INFO - Filling up the DagBag from /home/airflow/.local/lib/python3.7/site-packages/airflow/example_dags/example_branch_labels.py
[2023-06-05T10:00:45.150+0000] {processor.py:836} INFO - DAG(s) dict_keys(['example_branch_labels']) retrieved from /home/airflow/.local/lib/python3.7/site-packages/airflow/example_dags/example_branch_labels.py
[2023-06-05T10:00:45.177+0000] {logging_mixin.py:149} INFO - [2023-06-05T10:00:45.177+0000] {dag.py:2726} INFO - Sync 1 DAGs
[2023-06-05T10:00:45.210+0000] {logging_mixin.py:149} INFO - [2023-06-05T10:00:45.210+0000] {dag.py:3490} INFO - Setting next_dagrun for example_branch_labels to 2023-06-04T00:00:00+00:00, run_after=2023-06-05T00:00:00+00:00
[2023-06-05T10:00:45.229+0000] {processor.py:179} INFO - Processing /home/airflow/.local/lib/python3.7/site-packages/airflow/example_dags/example_branch_labels.py took 0.092 seconds
[2023-06-05T10:01:15.350+0000] {processor.py:157} INFO - Started process (PID=17450) to work on /home/airflow/.local/lib/python3.7/site-packages/airflow/example_dags/example_branch_labels.py
[2023-06-05T10:01:15.351+0000] {processor.py:826} INFO - Processing file /home/airflow/.local/lib/python3.7/site-packages/airflow/example_dags/example_branch_labels.py for tasks to queue
[2023-06-05T10:01:15.352+0000] {logging_mixin.py:149} INFO - [2023-06-05T10:01:15.352+0000] {dagbag.py:541} INFO - Filling up the DagBag from /home/airflow/.local/lib/python3.7/site-packages/airflow/example_dags/example_branch_labels.py
[2023-06-05T10:01:15.360+0000] {processor.py:836} INFO - DAG(s) dict_keys(['example_branch_labels']) retrieved from /home/airflow/.local/lib/python3.7/site-packages/airflow/example_dags/example_branch_labels.py
[2023-06-05T10:01:15.388+0000] {logging_mixin.py:149} INFO - [2023-06-05T10:01:15.388+0000] {dag.py:2726} INFO - Sync 1 DAGs
[2023-06-05T10:01:15.423+0000] {logging_mixin.py:149} INFO - [2023-06-05T10:01:15.422+0000] {dag.py:3490} INFO - Setting next_dagrun for example_branch_labels to 2023-06-04T00:00:00+00:00, run_after=2023-06-05T00:00:00+00:00
[2023-06-05T10:01:15.443+0000] {processor.py:179} INFO - Processing /home/airflow/.local/lib/python3.7/site-packages/airflow/example_dags/example_branch_labels.py took 0.096 seconds
[2023-06-05T10:01:45.630+0000] {processor.py:157} INFO - Started process (PID=17511) to work on /home/airflow/.local/lib/python3.7/site-packages/airflow/example_dags/example_branch_labels.py
[2023-06-05T10:01:45.631+0000] {processor.py:826} INFO - Processing file /home/airflow/.local/lib/python3.7/site-packages/airflow/example_dags/example_branch_labels.py for tasks to queue
[2023-06-05T10:01:45.632+0000] {logging_mixin.py:149} INFO - [2023-06-05T10:01:45.631+0000] {dagbag.py:541} INFO - Filling up the DagBag from /home/airflow/.local/lib/python3.7/site-packages/airflow/example_dags/example_branch_labels.py
[2023-06-05T10:01:45.641+0000] {processor.py:836} INFO - DAG(s) dict_keys(['example_branch_labels']) retrieved from /home/airflow/.local/lib/python3.7/site-packages/airflow/example_dags/example_branch_labels.py
[2023-06-05T10:01:45.669+0000] {logging_mixin.py:149} INFO - [2023-06-05T10:01:45.669+0000] {dag.py:2726} INFO - Sync 1 DAGs
[2023-06-05T10:01:45.707+0000] {logging_mixin.py:149} INFO - [2023-06-05T10:01:45.707+0000] {dag.py:3490} INFO - Setting next_dagrun for example_branch_labels to 2023-06-04T00:00:00+00:00, run_after=2023-06-05T00:00:00+00:00
[2023-06-05T10:01:45.732+0000] {processor.py:179} INFO - Processing /home/airflow/.local/lib/python3.7/site-packages/airflow/example_dags/example_branch_labels.py took 0.106 seconds
[2023-06-05T15:14:52.945+0000] {processor.py:157} INFO - Started process (PID=17573) to work on /home/airflow/.local/lib/python3.7/site-packages/airflow/example_dags/example_branch_labels.py
[2023-06-05T15:14:52.946+0000] {processor.py:826} INFO - Processing file /home/airflow/.local/lib/python3.7/site-packages/airflow/example_dags/example_branch_labels.py for tasks to queue
[2023-06-05T15:14:52.947+0000] {logging_mixin.py:149} INFO - [2023-06-05T15:14:52.946+0000] {dagbag.py:541} INFO - Filling up the DagBag from /home/airflow/.local/lib/python3.7/site-packages/airflow/example_dags/example_branch_labels.py
[2023-06-05T15:14:52.956+0000] {processor.py:836} INFO - DAG(s) dict_keys(['example_branch_labels']) retrieved from /home/airflow/.local/lib/python3.7/site-packages/airflow/example_dags/example_branch_labels.py
[2023-06-05T15:14:52.985+0000] {logging_mixin.py:149} INFO - [2023-06-05T15:14:52.985+0000] {dag.py:2726} INFO - Sync 1 DAGs
[2023-06-05T15:14:53.022+0000] {logging_mixin.py:149} INFO - [2023-06-05T15:14:53.022+0000] {dag.py:3490} INFO - Setting next_dagrun for example_branch_labels to 2023-06-04T00:00:00+00:00, run_after=2023-06-05T00:00:00+00:00
[2023-06-05T15:14:53.069+0000] {processor.py:179} INFO - Processing /home/airflow/.local/lib/python3.7/site-packages/airflow/example_dags/example_branch_labels.py took 0.127 seconds
[2023-06-05T15:15:23.757+0000] {processor.py:157} INFO - Started process (PID=17634) to work on /home/airflow/.local/lib/python3.7/site-packages/airflow/example_dags/example_branch_labels.py
[2023-06-05T15:15:23.757+0000] {processor.py:826} INFO - Processing file /home/airflow/.local/lib/python3.7/site-packages/airflow/example_dags/example_branch_labels.py for tasks to queue
[2023-06-05T15:15:23.758+0000] {logging_mixin.py:149} INFO - [2023-06-05T15:15:23.758+0000] {dagbag.py:541} INFO - Filling up the DagBag from /home/airflow/.local/lib/python3.7/site-packages/airflow/example_dags/example_branch_labels.py
[2023-06-05T15:15:23.767+0000] {processor.py:836} INFO - DAG(s) dict_keys(['example_branch_labels']) retrieved from /home/airflow/.local/lib/python3.7/site-packages/airflow/example_dags/example_branch_labels.py
[2023-06-05T15:15:23.794+0000] {logging_mixin.py:149} INFO - [2023-06-05T15:15:23.794+0000] {dag.py:2726} INFO - Sync 1 DAGs
[2023-06-05T15:15:23.825+0000] {logging_mixin.py:149} INFO - [2023-06-05T15:15:23.825+0000] {dag.py:3490} INFO - Setting next_dagrun for example_branch_labels to 2023-06-04T00:00:00+00:00, run_after=2023-06-05T00:00:00+00:00
[2023-06-05T15:15:23.845+0000] {processor.py:179} INFO - Processing /home/airflow/.local/lib/python3.7/site-packages/airflow/example_dags/example_branch_labels.py took 0.091 seconds
[2023-06-05T15:15:54.390+0000] {processor.py:157} INFO - Started process (PID=17695) to work on /home/airflow/.local/lib/python3.7/site-packages/airflow/example_dags/example_branch_labels.py
[2023-06-05T15:15:54.391+0000] {processor.py:826} INFO - Processing file /home/airflow/.local/lib/python3.7/site-packages/airflow/example_dags/example_branch_labels.py for tasks to queue
[2023-06-05T15:15:54.391+0000] {logging_mixin.py:149} INFO - [2023-06-05T15:15:54.391+0000] {dagbag.py:541} INFO - Filling up the DagBag from /home/airflow/.local/lib/python3.7/site-packages/airflow/example_dags/example_branch_labels.py
[2023-06-05T15:15:54.400+0000] {processor.py:836} INFO - DAG(s) dict_keys(['example_branch_labels']) retrieved from /home/airflow/.local/lib/python3.7/site-packages/airflow/example_dags/example_branch_labels.py
[2023-06-05T15:15:54.427+0000] {logging_mixin.py:149} INFO - [2023-06-05T15:15:54.427+0000] {dag.py:2726} INFO - Sync 1 DAGs
[2023-06-05T15:15:54.459+0000] {logging_mixin.py:149} INFO - [2023-06-05T15:15:54.459+0000] {dag.py:3490} INFO - Setting next_dagrun for example_branch_labels to 2023-06-04T00:00:00+00:00, run_after=2023-06-05T00:00:00+00:00
[2023-06-05T15:15:54.483+0000] {processor.py:179} INFO - Processing /home/airflow/.local/lib/python3.7/site-packages/airflow/example_dags/example_branch_labels.py took 0.096 seconds
[2023-06-05T15:16:24.838+0000] {processor.py:157} INFO - Started process (PID=17756) to work on /home/airflow/.local/lib/python3.7/site-packages/airflow/example_dags/example_branch_labels.py
[2023-06-05T15:16:24.839+0000] {processor.py:826} INFO - Processing file /home/airflow/.local/lib/python3.7/site-packages/airflow/example_dags/example_branch_labels.py for tasks to queue
[2023-06-05T15:16:24.839+0000] {logging_mixin.py:149} INFO - [2023-06-05T15:16:24.839+0000] {dagbag.py:541} INFO - Filling up the DagBag from /home/airflow/.local/lib/python3.7/site-packages/airflow/example_dags/example_branch_labels.py
[2023-06-05T15:16:24.849+0000] {processor.py:836} INFO - DAG(s) dict_keys(['example_branch_labels']) retrieved from /home/airflow/.local/lib/python3.7/site-packages/airflow/example_dags/example_branch_labels.py
[2023-06-05T15:16:24.875+0000] {logging_mixin.py:149} INFO - [2023-06-05T15:16:24.874+0000] {dag.py:2726} INFO - Sync 1 DAGs
[2023-06-05T15:16:24.906+0000] {logging_mixin.py:149} INFO - [2023-06-05T15:16:24.906+0000] {dag.py:3490} INFO - Setting next_dagrun for example_branch_labels to 2023-06-04T00:00:00+00:00, run_after=2023-06-05T00:00:00+00:00
[2023-06-05T15:16:24.926+0000] {processor.py:179} INFO - Processing /home/airflow/.local/lib/python3.7/site-packages/airflow/example_dags/example_branch_labels.py took 0.091 seconds
[2023-06-05T15:16:55.364+0000] {processor.py:157} INFO - Started process (PID=17817) to work on /home/airflow/.local/lib/python3.7/site-packages/airflow/example_dags/example_branch_labels.py
[2023-06-05T15:16:55.364+0000] {processor.py:826} INFO - Processing file /home/airflow/.local/lib/python3.7/site-packages/airflow/example_dags/example_branch_labels.py for tasks to queue
[2023-06-05T15:16:55.365+0000] {logging_mixin.py:149} INFO - [2023-06-05T15:16:55.365+0000] {dagbag.py:541} INFO - Filling up the DagBag from /home/airflow/.local/lib/python3.7/site-packages/airflow/example_dags/example_branch_labels.py
[2023-06-05T15:16:55.373+0000] {processor.py:836} INFO - DAG(s) dict_keys(['example_branch_labels']) retrieved from /home/airflow/.local/lib/python3.7/site-packages/airflow/example_dags/example_branch_labels.py
[2023-06-05T15:16:55.399+0000] {logging_mixin.py:149} INFO - [2023-06-05T15:16:55.398+0000] {dag.py:2726} INFO - Sync 1 DAGs
[2023-06-05T15:16:55.428+0000] {logging_mixin.py:149} INFO - [2023-06-05T15:16:55.428+0000] {dag.py:3490} INFO - Setting next_dagrun for example_branch_labels to 2023-06-04T00:00:00+00:00, run_after=2023-06-05T00:00:00+00:00
[2023-06-05T15:16:55.447+0000] {processor.py:179} INFO - Processing /home/airflow/.local/lib/python3.7/site-packages/airflow/example_dags/example_branch_labels.py took 0.087 seconds
[2023-06-05T15:17:25.890+0000] {processor.py:157} INFO - Started process (PID=17878) to work on /home/airflow/.local/lib/python3.7/site-packages/airflow/example_dags/example_branch_labels.py
[2023-06-05T15:17:25.891+0000] {processor.py:826} INFO - Processing file /home/airflow/.local/lib/python3.7/site-packages/airflow/example_dags/example_branch_labels.py for tasks to queue
[2023-06-05T15:17:25.892+0000] {logging_mixin.py:149} INFO - [2023-06-05T15:17:25.892+0000] {dagbag.py:541} INFO - Filling up the DagBag from /home/airflow/.local/lib/python3.7/site-packages/airflow/example_dags/example_branch_labels.py
[2023-06-05T15:17:25.900+0000] {processor.py:836} INFO - DAG(s) dict_keys(['example_branch_labels']) retrieved from /home/airflow/.local/lib/python3.7/site-packages/airflow/example_dags/example_branch_labels.py
[2023-06-05T15:17:25.927+0000] {logging_mixin.py:149} INFO - [2023-06-05T15:17:25.926+0000] {dag.py:2726} INFO - Sync 1 DAGs
[2023-06-05T15:17:25.961+0000] {logging_mixin.py:149} INFO - [2023-06-05T15:17:25.961+0000] {dag.py:3490} INFO - Setting next_dagrun for example_branch_labels to 2023-06-04T00:00:00+00:00, run_after=2023-06-05T00:00:00+00:00
[2023-06-05T15:17:25.982+0000] {processor.py:179} INFO - Processing /home/airflow/.local/lib/python3.7/site-packages/airflow/example_dags/example_branch_labels.py took 0.095 seconds
[2023-06-05T15:17:58.355+0000] {processor.py:157} INFO - Started process (PID=17939) to work on /home/airflow/.local/lib/python3.7/site-packages/airflow/example_dags/example_branch_labels.py
[2023-06-05T15:17:58.366+0000] {processor.py:826} INFO - Processing file /home/airflow/.local/lib/python3.7/site-packages/airflow/example_dags/example_branch_labels.py for tasks to queue
[2023-06-05T15:17:58.369+0000] {logging_mixin.py:149} INFO - [2023-06-05T15:17:58.369+0000] {dagbag.py:541} INFO - Filling up the DagBag from /home/airflow/.local/lib/python3.7/site-packages/airflow/example_dags/example_branch_labels.py
[2023-06-05T15:17:58.393+0000] {processor.py:836} INFO - DAG(s) dict_keys(['example_branch_labels']) retrieved from /home/airflow/.local/lib/python3.7/site-packages/airflow/example_dags/example_branch_labels.py
[2023-06-05T15:17:58.444+0000] {logging_mixin.py:149} INFO - [2023-06-05T15:17:58.444+0000] {dag.py:2726} INFO - Sync 1 DAGs
[2023-06-05T15:17:58.484+0000] {logging_mixin.py:149} INFO - [2023-06-05T15:17:58.484+0000] {dag.py:3490} INFO - Setting next_dagrun for example_branch_labels to 2023-06-04T00:00:00+00:00, run_after=2023-06-05T00:00:00+00:00
[2023-06-05T15:17:58.507+0000] {processor.py:179} INFO - Processing /home/airflow/.local/lib/python3.7/site-packages/airflow/example_dags/example_branch_labels.py took 0.160 seconds
[2023-06-05T15:18:28.895+0000] {processor.py:157} INFO - Started process (PID=18000) to work on /home/airflow/.local/lib/python3.7/site-packages/airflow/example_dags/example_branch_labels.py
[2023-06-05T15:18:28.902+0000] {processor.py:826} INFO - Processing file /home/airflow/.local/lib/python3.7/site-packages/airflow/example_dags/example_branch_labels.py for tasks to queue
[2023-06-05T15:18:28.902+0000] {logging_mixin.py:149} INFO - [2023-06-05T15:18:28.902+0000] {dagbag.py:541} INFO - Filling up the DagBag from /home/airflow/.local/lib/python3.7/site-packages/airflow/example_dags/example_branch_labels.py
[2023-06-05T15:18:28.910+0000] {processor.py:836} INFO - DAG(s) dict_keys(['example_branch_labels']) retrieved from /home/airflow/.local/lib/python3.7/site-packages/airflow/example_dags/example_branch_labels.py
[2023-06-05T15:18:28.939+0000] {logging_mixin.py:149} INFO - [2023-06-05T15:18:28.939+0000] {dag.py:2726} INFO - Sync 1 DAGs
[2023-06-05T15:18:28.989+0000] {logging_mixin.py:149} INFO - [2023-06-05T15:18:28.989+0000] {dag.py:3490} INFO - Setting next_dagrun for example_branch_labels to 2023-06-04T00:00:00+00:00, run_after=2023-06-05T00:00:00+00:00
[2023-06-05T15:18:29.013+0000] {processor.py:179} INFO - Processing /home/airflow/.local/lib/python3.7/site-packages/airflow/example_dags/example_branch_labels.py took 0.121 seconds
[2023-06-05T15:18:59.695+0000] {processor.py:157} INFO - Started process (PID=18061) to work on /home/airflow/.local/lib/python3.7/site-packages/airflow/example_dags/example_branch_labels.py
[2023-06-05T15:18:59.708+0000] {processor.py:826} INFO - Processing file /home/airflow/.local/lib/python3.7/site-packages/airflow/example_dags/example_branch_labels.py for tasks to queue
[2023-06-05T15:18:59.710+0000] {logging_mixin.py:149} INFO - [2023-06-05T15:18:59.710+0000] {dagbag.py:541} INFO - Filling up the DagBag from /home/airflow/.local/lib/python3.7/site-packages/airflow/example_dags/example_branch_labels.py
[2023-06-05T15:18:59.732+0000] {processor.py:836} INFO - DAG(s) dict_keys(['example_branch_labels']) retrieved from /home/airflow/.local/lib/python3.7/site-packages/airflow/example_dags/example_branch_labels.py
[2023-06-05T15:18:59.775+0000] {logging_mixin.py:149} INFO - [2023-06-05T15:18:59.775+0000] {dag.py:2726} INFO - Sync 1 DAGs
[2023-06-05T15:18:59.827+0000] {logging_mixin.py:149} INFO - [2023-06-05T15:18:59.827+0000] {dag.py:3490} INFO - Setting next_dagrun for example_branch_labels to 2023-06-04T00:00:00+00:00, run_after=2023-06-05T00:00:00+00:00
[2023-06-05T15:18:59.870+0000] {processor.py:179} INFO - Processing /home/airflow/.local/lib/python3.7/site-packages/airflow/example_dags/example_branch_labels.py took 0.186 seconds
[2023-06-05T15:19:30.728+0000] {processor.py:157} INFO - Started process (PID=18122) to work on /home/airflow/.local/lib/python3.7/site-packages/airflow/example_dags/example_branch_labels.py
[2023-06-05T15:19:30.733+0000] {processor.py:826} INFO - Processing file /home/airflow/.local/lib/python3.7/site-packages/airflow/example_dags/example_branch_labels.py for tasks to queue
[2023-06-05T15:19:30.734+0000] {logging_mixin.py:149} INFO - [2023-06-05T15:19:30.733+0000] {dagbag.py:541} INFO - Filling up the DagBag from /home/airflow/.local/lib/python3.7/site-packages/airflow/example_dags/example_branch_labels.py
[2023-06-05T15:19:30.744+0000] {processor.py:836} INFO - DAG(s) dict_keys(['example_branch_labels']) retrieved from /home/airflow/.local/lib/python3.7/site-packages/airflow/example_dags/example_branch_labels.py
[2023-06-05T15:19:30.779+0000] {logging_mixin.py:149} INFO - [2023-06-05T15:19:30.778+0000] {dag.py:2726} INFO - Sync 1 DAGs
[2023-06-05T15:19:30.824+0000] {logging_mixin.py:149} INFO - [2023-06-05T15:19:30.824+0000] {dag.py:3490} INFO - Setting next_dagrun for example_branch_labels to 2023-06-04T00:00:00+00:00, run_after=2023-06-05T00:00:00+00:00
[2023-06-05T15:19:30.848+0000] {processor.py:179} INFO - Processing /home/airflow/.local/lib/python3.7/site-packages/airflow/example_dags/example_branch_labels.py took 0.125 seconds
[2023-06-05T15:20:01.221+0000] {processor.py:157} INFO - Started process (PID=18184) to work on /home/airflow/.local/lib/python3.7/site-packages/airflow/example_dags/example_branch_labels.py
[2023-06-05T15:20:01.238+0000] {processor.py:826} INFO - Processing file /home/airflow/.local/lib/python3.7/site-packages/airflow/example_dags/example_branch_labels.py for tasks to queue
[2023-06-05T15:20:01.238+0000] {logging_mixin.py:149} INFO - [2023-06-05T15:20:01.238+0000] {dagbag.py:541} INFO - Filling up the DagBag from /home/airflow/.local/lib/python3.7/site-packages/airflow/example_dags/example_branch_labels.py
[2023-06-05T15:20:01.247+0000] {processor.py:836} INFO - DAG(s) dict_keys(['example_branch_labels']) retrieved from /home/airflow/.local/lib/python3.7/site-packages/airflow/example_dags/example_branch_labels.py
[2023-06-05T15:20:01.275+0000] {logging_mixin.py:149} INFO - [2023-06-05T15:20:01.275+0000] {dag.py:2726} INFO - Sync 1 DAGs
[2023-06-05T15:20:01.317+0000] {logging_mixin.py:149} INFO - [2023-06-05T15:20:01.317+0000] {dag.py:3490} INFO - Setting next_dagrun for example_branch_labels to 2023-06-04T00:00:00+00:00, run_after=2023-06-05T00:00:00+00:00
[2023-06-05T15:20:01.337+0000] {processor.py:179} INFO - Processing /home/airflow/.local/lib/python3.7/site-packages/airflow/example_dags/example_branch_labels.py took 0.120 seconds
[2023-06-05T15:20:32.437+0000] {processor.py:157} INFO - Started process (PID=18245) to work on /home/airflow/.local/lib/python3.7/site-packages/airflow/example_dags/example_branch_labels.py
[2023-06-05T15:20:32.440+0000] {processor.py:826} INFO - Processing file /home/airflow/.local/lib/python3.7/site-packages/airflow/example_dags/example_branch_labels.py for tasks to queue
[2023-06-05T15:20:32.443+0000] {logging_mixin.py:149} INFO - [2023-06-05T15:20:32.442+0000] {dagbag.py:541} INFO - Filling up the DagBag from /home/airflow/.local/lib/python3.7/site-packages/airflow/example_dags/example_branch_labels.py
[2023-06-05T15:20:32.480+0000] {processor.py:836} INFO - DAG(s) dict_keys(['example_branch_labels']) retrieved from /home/airflow/.local/lib/python3.7/site-packages/airflow/example_dags/example_branch_labels.py
[2023-06-05T15:20:32.534+0000] {logging_mixin.py:149} INFO - [2023-06-05T15:20:32.533+0000] {dag.py:2726} INFO - Sync 1 DAGs
[2023-06-05T15:20:32.593+0000] {logging_mixin.py:149} INFO - [2023-06-05T15:20:32.593+0000] {dag.py:3490} INFO - Setting next_dagrun for example_branch_labels to 2023-06-04T00:00:00+00:00, run_after=2023-06-05T00:00:00+00:00
[2023-06-05T15:20:32.617+0000] {processor.py:179} INFO - Processing /home/airflow/.local/lib/python3.7/site-packages/airflow/example_dags/example_branch_labels.py took 0.192 seconds
[2023-06-05T15:21:03.092+0000] {processor.py:157} INFO - Started process (PID=18306) to work on /home/airflow/.local/lib/python3.7/site-packages/airflow/example_dags/example_branch_labels.py
[2023-06-05T15:21:03.099+0000] {processor.py:826} INFO - Processing file /home/airflow/.local/lib/python3.7/site-packages/airflow/example_dags/example_branch_labels.py for tasks to queue
[2023-06-05T15:21:03.100+0000] {logging_mixin.py:149} INFO - [2023-06-05T15:21:03.100+0000] {dagbag.py:541} INFO - Filling up the DagBag from /home/airflow/.local/lib/python3.7/site-packages/airflow/example_dags/example_branch_labels.py
[2023-06-05T15:21:03.108+0000] {processor.py:836} INFO - DAG(s) dict_keys(['example_branch_labels']) retrieved from /home/airflow/.local/lib/python3.7/site-packages/airflow/example_dags/example_branch_labels.py
[2023-06-05T15:21:03.137+0000] {logging_mixin.py:149} INFO - [2023-06-05T15:21:03.137+0000] {dag.py:2726} INFO - Sync 1 DAGs
[2023-06-05T15:21:03.168+0000] {logging_mixin.py:149} INFO - [2023-06-05T15:21:03.168+0000] {dag.py:3490} INFO - Setting next_dagrun for example_branch_labels to 2023-06-04T00:00:00+00:00, run_after=2023-06-05T00:00:00+00:00
[2023-06-05T15:21:03.189+0000] {processor.py:179} INFO - Processing /home/airflow/.local/lib/python3.7/site-packages/airflow/example_dags/example_branch_labels.py took 0.101 seconds
[2023-06-05T15:21:33.805+0000] {processor.py:157} INFO - Started process (PID=18367) to work on /home/airflow/.local/lib/python3.7/site-packages/airflow/example_dags/example_branch_labels.py
[2023-06-05T15:21:33.812+0000] {processor.py:826} INFO - Processing file /home/airflow/.local/lib/python3.7/site-packages/airflow/example_dags/example_branch_labels.py for tasks to queue
[2023-06-05T15:21:33.813+0000] {logging_mixin.py:149} INFO - [2023-06-05T15:21:33.812+0000] {dagbag.py:541} INFO - Filling up the DagBag from /home/airflow/.local/lib/python3.7/site-packages/airflow/example_dags/example_branch_labels.py
[2023-06-05T15:21:33.822+0000] {processor.py:836} INFO - DAG(s) dict_keys(['example_branch_labels']) retrieved from /home/airflow/.local/lib/python3.7/site-packages/airflow/example_dags/example_branch_labels.py
[2023-06-05T15:21:33.856+0000] {logging_mixin.py:149} INFO - [2023-06-05T15:21:33.856+0000] {dag.py:2726} INFO - Sync 1 DAGs
[2023-06-05T15:21:33.888+0000] {logging_mixin.py:149} INFO - [2023-06-05T15:21:33.888+0000] {dag.py:3490} INFO - Setting next_dagrun for example_branch_labels to 2023-06-04T00:00:00+00:00, run_after=2023-06-05T00:00:00+00:00
[2023-06-05T15:21:33.933+0000] {processor.py:179} INFO - Processing /home/airflow/.local/lib/python3.7/site-packages/airflow/example_dags/example_branch_labels.py took 0.131 seconds
[2023-06-05T15:22:05.265+0000] {processor.py:157} INFO - Started process (PID=18429) to work on /home/airflow/.local/lib/python3.7/site-packages/airflow/example_dags/example_branch_labels.py
[2023-06-05T15:22:05.271+0000] {processor.py:826} INFO - Processing file /home/airflow/.local/lib/python3.7/site-packages/airflow/example_dags/example_branch_labels.py for tasks to queue
[2023-06-05T15:22:05.272+0000] {logging_mixin.py:149} INFO - [2023-06-05T15:22:05.272+0000] {dagbag.py:541} INFO - Filling up the DagBag from /home/airflow/.local/lib/python3.7/site-packages/airflow/example_dags/example_branch_labels.py
[2023-06-05T15:22:05.283+0000] {processor.py:836} INFO - DAG(s) dict_keys(['example_branch_labels']) retrieved from /home/airflow/.local/lib/python3.7/site-packages/airflow/example_dags/example_branch_labels.py
[2023-06-05T15:22:05.321+0000] {logging_mixin.py:149} INFO - [2023-06-05T15:22:05.321+0000] {dag.py:2726} INFO - Sync 1 DAGs
[2023-06-05T15:22:05.371+0000] {logging_mixin.py:149} INFO - [2023-06-05T15:22:05.370+0000] {dag.py:3490} INFO - Setting next_dagrun for example_branch_labels to 2023-06-04T00:00:00+00:00, run_after=2023-06-05T00:00:00+00:00
[2023-06-05T15:22:05.420+0000] {processor.py:179} INFO - Processing /home/airflow/.local/lib/python3.7/site-packages/airflow/example_dags/example_branch_labels.py took 0.159 seconds
[2023-06-05T15:22:36.069+0000] {processor.py:157} INFO - Started process (PID=18481) to work on /home/airflow/.local/lib/python3.7/site-packages/airflow/example_dags/example_branch_labels.py
[2023-06-05T15:22:36.070+0000] {processor.py:826} INFO - Processing file /home/airflow/.local/lib/python3.7/site-packages/airflow/example_dags/example_branch_labels.py for tasks to queue
[2023-06-05T15:22:36.072+0000] {logging_mixin.py:149} INFO - [2023-06-05T15:22:36.072+0000] {dagbag.py:541} INFO - Filling up the DagBag from /home/airflow/.local/lib/python3.7/site-packages/airflow/example_dags/example_branch_labels.py
[2023-06-05T15:22:36.086+0000] {processor.py:836} INFO - DAG(s) dict_keys(['example_branch_labels']) retrieved from /home/airflow/.local/lib/python3.7/site-packages/airflow/example_dags/example_branch_labels.py
[2023-06-05T15:22:36.119+0000] {logging_mixin.py:149} INFO - [2023-06-05T15:22:36.118+0000] {dag.py:2726} INFO - Sync 1 DAGs
[2023-06-05T15:22:36.168+0000] {logging_mixin.py:149} INFO - [2023-06-05T15:22:36.168+0000] {dag.py:3490} INFO - Setting next_dagrun for example_branch_labels to 2023-06-04T00:00:00+00:00, run_after=2023-06-05T00:00:00+00:00
[2023-06-05T15:22:36.198+0000] {processor.py:179} INFO - Processing /home/airflow/.local/lib/python3.7/site-packages/airflow/example_dags/example_branch_labels.py took 0.137 seconds
[2023-06-05T15:23:06.449+0000] {processor.py:157} INFO - Started process (PID=18542) to work on /home/airflow/.local/lib/python3.7/site-packages/airflow/example_dags/example_branch_labels.py
[2023-06-05T15:23:06.449+0000] {processor.py:826} INFO - Processing file /home/airflow/.local/lib/python3.7/site-packages/airflow/example_dags/example_branch_labels.py for tasks to queue
[2023-06-05T15:23:06.450+0000] {logging_mixin.py:149} INFO - [2023-06-05T15:23:06.450+0000] {dagbag.py:541} INFO - Filling up the DagBag from /home/airflow/.local/lib/python3.7/site-packages/airflow/example_dags/example_branch_labels.py
[2023-06-05T15:23:06.459+0000] {processor.py:836} INFO - DAG(s) dict_keys(['example_branch_labels']) retrieved from /home/airflow/.local/lib/python3.7/site-packages/airflow/example_dags/example_branch_labels.py
[2023-06-05T15:23:06.486+0000] {logging_mixin.py:149} INFO - [2023-06-05T15:23:06.486+0000] {dag.py:2726} INFO - Sync 1 DAGs
[2023-06-05T15:23:06.516+0000] {logging_mixin.py:149} INFO - [2023-06-05T15:23:06.516+0000] {dag.py:3490} INFO - Setting next_dagrun for example_branch_labels to 2023-06-04T00:00:00+00:00, run_after=2023-06-05T00:00:00+00:00
[2023-06-05T15:23:06.537+0000] {processor.py:179} INFO - Processing /home/airflow/.local/lib/python3.7/site-packages/airflow/example_dags/example_branch_labels.py took 0.091 seconds
[2023-06-05T15:23:36.968+0000] {processor.py:157} INFO - Started process (PID=18603) to work on /home/airflow/.local/lib/python3.7/site-packages/airflow/example_dags/example_branch_labels.py
[2023-06-05T15:23:36.969+0000] {processor.py:826} INFO - Processing file /home/airflow/.local/lib/python3.7/site-packages/airflow/example_dags/example_branch_labels.py for tasks to queue
[2023-06-05T15:23:36.969+0000] {logging_mixin.py:149} INFO - [2023-06-05T15:23:36.969+0000] {dagbag.py:541} INFO - Filling up the DagBag from /home/airflow/.local/lib/python3.7/site-packages/airflow/example_dags/example_branch_labels.py
[2023-06-05T15:23:36.977+0000] {processor.py:836} INFO - DAG(s) dict_keys(['example_branch_labels']) retrieved from /home/airflow/.local/lib/python3.7/site-packages/airflow/example_dags/example_branch_labels.py
[2023-06-05T15:23:37.004+0000] {logging_mixin.py:149} INFO - [2023-06-05T15:23:37.004+0000] {dag.py:2726} INFO - Sync 1 DAGs
[2023-06-05T15:23:37.035+0000] {logging_mixin.py:149} INFO - [2023-06-05T15:23:37.035+0000] {dag.py:3490} INFO - Setting next_dagrun for example_branch_labels to 2023-06-04T00:00:00+00:00, run_after=2023-06-05T00:00:00+00:00
[2023-06-05T15:23:37.055+0000] {processor.py:179} INFO - Processing /home/airflow/.local/lib/python3.7/site-packages/airflow/example_dags/example_branch_labels.py took 0.090 seconds
[2023-06-05T15:24:07.782+0000] {processor.py:157} INFO - Started process (PID=18664) to work on /home/airflow/.local/lib/python3.7/site-packages/airflow/example_dags/example_branch_labels.py
[2023-06-05T15:24:07.783+0000] {processor.py:826} INFO - Processing file /home/airflow/.local/lib/python3.7/site-packages/airflow/example_dags/example_branch_labels.py for tasks to queue
[2023-06-05T15:24:07.784+0000] {logging_mixin.py:149} INFO - [2023-06-05T15:24:07.784+0000] {dagbag.py:541} INFO - Filling up the DagBag from /home/airflow/.local/lib/python3.7/site-packages/airflow/example_dags/example_branch_labels.py
[2023-06-05T15:24:07.795+0000] {processor.py:836} INFO - DAG(s) dict_keys(['example_branch_labels']) retrieved from /home/airflow/.local/lib/python3.7/site-packages/airflow/example_dags/example_branch_labels.py
[2023-06-05T15:24:07.823+0000] {logging_mixin.py:149} INFO - [2023-06-05T15:24:07.822+0000] {dag.py:2726} INFO - Sync 1 DAGs
[2023-06-05T15:24:07.851+0000] {logging_mixin.py:149} INFO - [2023-06-05T15:24:07.851+0000] {dag.py:3490} INFO - Setting next_dagrun for example_branch_labels to 2023-06-04T00:00:00+00:00, run_after=2023-06-05T00:00:00+00:00
[2023-06-05T15:24:07.871+0000] {processor.py:179} INFO - Processing /home/airflow/.local/lib/python3.7/site-packages/airflow/example_dags/example_branch_labels.py took 0.095 seconds
[2023-06-05T15:24:37.897+0000] {processor.py:157} INFO - Started process (PID=18725) to work on /home/airflow/.local/lib/python3.7/site-packages/airflow/example_dags/example_branch_labels.py
[2023-06-05T15:24:37.898+0000] {processor.py:826} INFO - Processing file /home/airflow/.local/lib/python3.7/site-packages/airflow/example_dags/example_branch_labels.py for tasks to queue
[2023-06-05T15:24:37.899+0000] {logging_mixin.py:149} INFO - [2023-06-05T15:24:37.898+0000] {dagbag.py:541} INFO - Filling up the DagBag from /home/airflow/.local/lib/python3.7/site-packages/airflow/example_dags/example_branch_labels.py
[2023-06-05T15:24:37.907+0000] {processor.py:836} INFO - DAG(s) dict_keys(['example_branch_labels']) retrieved from /home/airflow/.local/lib/python3.7/site-packages/airflow/example_dags/example_branch_labels.py
[2023-06-05T15:24:37.932+0000] {logging_mixin.py:149} INFO - [2023-06-05T15:24:37.932+0000] {dag.py:2726} INFO - Sync 1 DAGs
[2023-06-05T15:24:37.963+0000] {logging_mixin.py:149} INFO - [2023-06-05T15:24:37.962+0000] {dag.py:3490} INFO - Setting next_dagrun for example_branch_labels to 2023-06-04T00:00:00+00:00, run_after=2023-06-05T00:00:00+00:00
[2023-06-05T15:24:37.982+0000] {processor.py:179} INFO - Processing /home/airflow/.local/lib/python3.7/site-packages/airflow/example_dags/example_branch_labels.py took 0.088 seconds
[2023-06-05T15:25:08.041+0000] {processor.py:157} INFO - Started process (PID=18786) to work on /home/airflow/.local/lib/python3.7/site-packages/airflow/example_dags/example_branch_labels.py
[2023-06-05T15:25:08.041+0000] {processor.py:826} INFO - Processing file /home/airflow/.local/lib/python3.7/site-packages/airflow/example_dags/example_branch_labels.py for tasks to queue
[2023-06-05T15:25:08.042+0000] {logging_mixin.py:149} INFO - [2023-06-05T15:25:08.042+0000] {dagbag.py:541} INFO - Filling up the DagBag from /home/airflow/.local/lib/python3.7/site-packages/airflow/example_dags/example_branch_labels.py
[2023-06-05T15:25:08.050+0000] {processor.py:836} INFO - DAG(s) dict_keys(['example_branch_labels']) retrieved from /home/airflow/.local/lib/python3.7/site-packages/airflow/example_dags/example_branch_labels.py
[2023-06-05T15:25:08.076+0000] {logging_mixin.py:149} INFO - [2023-06-05T15:25:08.076+0000] {dag.py:2726} INFO - Sync 1 DAGs
[2023-06-05T15:25:08.107+0000] {logging_mixin.py:149} INFO - [2023-06-05T15:25:08.106+0000] {dag.py:3490} INFO - Setting next_dagrun for example_branch_labels to 2023-06-04T00:00:00+00:00, run_after=2023-06-05T00:00:00+00:00
[2023-06-05T15:25:08.126+0000] {processor.py:179} INFO - Processing /home/airflow/.local/lib/python3.7/site-packages/airflow/example_dags/example_branch_labels.py took 0.088 seconds
[2023-06-05T15:25:38.771+0000] {processor.py:157} INFO - Started process (PID=18847) to work on /home/airflow/.local/lib/python3.7/site-packages/airflow/example_dags/example_branch_labels.py
[2023-06-05T15:25:38.772+0000] {processor.py:826} INFO - Processing file /home/airflow/.local/lib/python3.7/site-packages/airflow/example_dags/example_branch_labels.py for tasks to queue
[2023-06-05T15:25:38.773+0000] {logging_mixin.py:149} INFO - [2023-06-05T15:25:38.773+0000] {dagbag.py:541} INFO - Filling up the DagBag from /home/airflow/.local/lib/python3.7/site-packages/airflow/example_dags/example_branch_labels.py
[2023-06-05T15:25:38.781+0000] {processor.py:836} INFO - DAG(s) dict_keys(['example_branch_labels']) retrieved from /home/airflow/.local/lib/python3.7/site-packages/airflow/example_dags/example_branch_labels.py
[2023-06-05T15:25:38.807+0000] {logging_mixin.py:149} INFO - [2023-06-05T15:25:38.807+0000] {dag.py:2726} INFO - Sync 1 DAGs
[2023-06-05T15:25:38.838+0000] {logging_mixin.py:149} INFO - [2023-06-05T15:25:38.838+0000] {dag.py:3490} INFO - Setting next_dagrun for example_branch_labels to 2023-06-04T00:00:00+00:00, run_after=2023-06-05T00:00:00+00:00
[2023-06-05T15:25:38.951+0000] {processor.py:179} INFO - Processing /home/airflow/.local/lib/python3.7/site-packages/airflow/example_dags/example_branch_labels.py took 0.182 seconds
[2023-06-05T15:26:09.298+0000] {processor.py:157} INFO - Started process (PID=18908) to work on /home/airflow/.local/lib/python3.7/site-packages/airflow/example_dags/example_branch_labels.py
[2023-06-05T15:26:09.298+0000] {processor.py:826} INFO - Processing file /home/airflow/.local/lib/python3.7/site-packages/airflow/example_dags/example_branch_labels.py for tasks to queue
[2023-06-05T15:26:09.299+0000] {logging_mixin.py:149} INFO - [2023-06-05T15:26:09.299+0000] {dagbag.py:541} INFO - Filling up the DagBag from /home/airflow/.local/lib/python3.7/site-packages/airflow/example_dags/example_branch_labels.py
[2023-06-05T15:26:09.307+0000] {processor.py:836} INFO - DAG(s) dict_keys(['example_branch_labels']) retrieved from /home/airflow/.local/lib/python3.7/site-packages/airflow/example_dags/example_branch_labels.py
[2023-06-05T15:26:09.333+0000] {logging_mixin.py:149} INFO - [2023-06-05T15:26:09.333+0000] {dag.py:2726} INFO - Sync 1 DAGs
[2023-06-05T15:26:09.364+0000] {logging_mixin.py:149} INFO - [2023-06-05T15:26:09.364+0000] {dag.py:3490} INFO - Setting next_dagrun for example_branch_labels to 2023-06-04T00:00:00+00:00, run_after=2023-06-05T00:00:00+00:00
[2023-06-05T15:26:09.383+0000] {processor.py:179} INFO - Processing /home/airflow/.local/lib/python3.7/site-packages/airflow/example_dags/example_branch_labels.py took 0.089 seconds
[2023-06-05T15:26:40.441+0000] {processor.py:157} INFO - Started process (PID=18969) to work on /home/airflow/.local/lib/python3.7/site-packages/airflow/example_dags/example_branch_labels.py
[2023-06-05T15:26:40.442+0000] {processor.py:826} INFO - Processing file /home/airflow/.local/lib/python3.7/site-packages/airflow/example_dags/example_branch_labels.py for tasks to queue
[2023-06-05T15:26:40.442+0000] {logging_mixin.py:149} INFO - [2023-06-05T15:26:40.442+0000] {dagbag.py:541} INFO - Filling up the DagBag from /home/airflow/.local/lib/python3.7/site-packages/airflow/example_dags/example_branch_labels.py
[2023-06-05T15:26:40.450+0000] {processor.py:836} INFO - DAG(s) dict_keys(['example_branch_labels']) retrieved from /home/airflow/.local/lib/python3.7/site-packages/airflow/example_dags/example_branch_labels.py
[2023-06-05T15:26:40.474+0000] {logging_mixin.py:149} INFO - [2023-06-05T15:26:40.473+0000] {dag.py:2726} INFO - Sync 1 DAGs
[2023-06-05T15:26:40.585+0000] {logging_mixin.py:149} INFO - [2023-06-05T15:26:40.585+0000] {dag.py:3490} INFO - Setting next_dagrun for example_branch_labels to 2023-06-04T00:00:00+00:00, run_after=2023-06-05T00:00:00+00:00
[2023-06-05T15:26:40.602+0000] {processor.py:179} INFO - Processing /home/airflow/.local/lib/python3.7/site-packages/airflow/example_dags/example_branch_labels.py took 0.163 seconds
[2023-06-05T15:27:10.828+0000] {processor.py:157} INFO - Started process (PID=19030) to work on /home/airflow/.local/lib/python3.7/site-packages/airflow/example_dags/example_branch_labels.py
[2023-06-05T15:27:10.829+0000] {processor.py:826} INFO - Processing file /home/airflow/.local/lib/python3.7/site-packages/airflow/example_dags/example_branch_labels.py for tasks to queue
[2023-06-05T15:27:10.830+0000] {logging_mixin.py:149} INFO - [2023-06-05T15:27:10.830+0000] {dagbag.py:541} INFO - Filling up the DagBag from /home/airflow/.local/lib/python3.7/site-packages/airflow/example_dags/example_branch_labels.py
[2023-06-05T15:27:10.839+0000] {processor.py:836} INFO - DAG(s) dict_keys(['example_branch_labels']) retrieved from /home/airflow/.local/lib/python3.7/site-packages/airflow/example_dags/example_branch_labels.py
[2023-06-05T15:27:10.867+0000] {logging_mixin.py:149} INFO - [2023-06-05T15:27:10.867+0000] {dag.py:2726} INFO - Sync 1 DAGs
[2023-06-05T15:27:10.902+0000] {logging_mixin.py:149} INFO - [2023-06-05T15:27:10.901+0000] {dag.py:3490} INFO - Setting next_dagrun for example_branch_labels to 2023-06-04T00:00:00+00:00, run_after=2023-06-05T00:00:00+00:00
[2023-06-05T15:27:10.922+0000] {processor.py:179} INFO - Processing /home/airflow/.local/lib/python3.7/site-packages/airflow/example_dags/example_branch_labels.py took 0.098 seconds
