[2023-05-28T16:55:07.456+0000] {logging_mixin.py:149} INFO - Changing /opt/***/logs/dag_id=listen_to_the_stream/run_id=scheduled__2023-05-28T16:54:59.782129+00:00/task_id=listen_for_mood permission to 509
[2023-05-28T16:55:07.478+0000] {logging_mixin.py:149} INFO - Changing /opt/***/logs/dag_id=listen_to_the_stream/run_id=scheduled__2023-05-28T16:54:59.782129+00:00/task_id=listen_for_mood permission to 509
[2023-05-28T16:55:07.622+0000] {taskinstance.py:1103} INFO - Dependencies all met for dep_context=non-requeueable deps ti=<TaskInstance: listen_to_the_stream.listen_for_mood scheduled__2023-05-28T16:54:59.782129+00:00 [queued]>
[2023-05-28T16:55:07.631+0000] {taskinstance.py:1103} INFO - Dependencies all met for dep_context=requeueable deps ti=<TaskInstance: listen_to_the_stream.listen_for_mood scheduled__2023-05-28T16:54:59.782129+00:00 [queued]>
[2023-05-28T16:55:07.631+0000] {taskinstance.py:1308} INFO - Starting attempt 1 of 1
[2023-05-28T16:55:07.647+0000] {taskinstance.py:1327} INFO - Executing <Task(AwaitMessageTriggerFunctionSensor): listen_for_mood> on 2023-05-28 16:54:59.782129+00:00
[2023-05-28T16:55:07.652+0000] {standard_task_runner.py:57} INFO - Started process 464 to run task
[2023-05-28T16:55:07.655+0000] {standard_task_runner.py:84} INFO - Running: ['***', 'tasks', 'run', 'listen_to_the_stream', 'listen_for_mood', 'scheduled__2023-05-28T16:54:59.782129+00:00', '--job-id', '112', '--raw', '--subdir', 'DAGS_FOLDER/listen_to_the_stream.py', '--cfg-path', '/tmp/tmpjsm_up1y']
[2023-05-28T16:55:07.657+0000] {standard_task_runner.py:85} INFO - Job 112: Subtask listen_for_mood
[2023-05-28T16:55:07.702+0000] {logging_mixin.py:149} INFO - Changing /opt/***/logs/dag_id=listen_to_the_stream/run_id=scheduled__2023-05-28T16:54:59.782129+00:00/task_id=listen_for_mood permission to 509
[2023-05-28T16:55:07.703+0000] {task_command.py:410} INFO - Running <TaskInstance: listen_to_the_stream.listen_for_mood scheduled__2023-05-28T16:54:59.782129+00:00 [running]> on host a2614f0ed60a
[2023-05-28T16:55:07.794+0000] {taskinstance.py:1547} INFO - Exporting env vars: AIRFLOW_CTX_DAG_OWNER='***' AIRFLOW_CTX_DAG_ID='listen_to_the_stream' AIRFLOW_CTX_TASK_ID='listen_for_mood' AIRFLOW_CTX_EXECUTION_DATE='2023-05-28T16:54:59.782129+00:00' AIRFLOW_CTX_TRY_NUMBER='1' AIRFLOW_CTX_DAG_RUN_ID='scheduled__2023-05-28T16:54:59.782129+00:00'
[2023-05-28T16:55:07.801+0000] {taskinstance.py:1420} INFO - Pausing task as DEFERRED. dag_id=listen_to_the_stream, task_id=listen_for_mood, execution_date=20230528T165459, start_date=20230528T165507
[2023-05-28T16:55:07.826+0000] {local_task_job_runner.py:222} INFO - Task exited with return code 100 (task deferral)
[2023-05-28T16:55:10.775+0000] {logging_mixin.py:149} INFO - Changing /opt/***/logs/dag_id=listen_to_the_stream/run_id=scheduled__2023-05-28T16:54:59.782129+00:00/task_id=listen_for_mood permission to 509
[2023-05-28T16:55:10.795+0000] {logging_mixin.py:149} INFO - Changing /opt/***/logs/dag_id=listen_to_the_stream/run_id=scheduled__2023-05-28T16:54:59.782129+00:00/task_id=listen_for_mood permission to 509
[2023-05-28T16:55:10.934+0000] {taskinstance.py:1103} INFO - Dependencies all met for dep_context=non-requeueable deps ti=<TaskInstance: listen_to_the_stream.listen_for_mood scheduled__2023-05-28T16:54:59.782129+00:00 [queued]>
[2023-05-28T16:55:10.943+0000] {taskinstance.py:1103} INFO - Dependencies all met for dep_context=requeueable deps ti=<TaskInstance: listen_to_the_stream.listen_for_mood scheduled__2023-05-28T16:54:59.782129+00:00 [queued]>
[2023-05-28T16:55:10.943+0000] {taskinstance.py:1306} INFO - Resuming after deferral
[2023-05-28T16:55:10.962+0000] {taskinstance.py:1327} INFO - Executing <Task(AwaitMessageTriggerFunctionSensor): listen_for_mood> on 2023-05-28 16:54:59.782129+00:00
[2023-05-28T16:55:10.968+0000] {standard_task_runner.py:57} INFO - Started process 467 to run task
[2023-05-28T16:55:10.973+0000] {standard_task_runner.py:84} INFO - Running: ['***', 'tasks', 'run', 'listen_to_the_stream', 'listen_for_mood', 'scheduled__2023-05-28T16:54:59.782129+00:00', '--job-id', '113', '--raw', '--subdir', 'DAGS_FOLDER/listen_to_the_stream.py', '--cfg-path', '/tmp/tmp9ej0cp_x']
[2023-05-28T16:55:10.975+0000] {standard_task_runner.py:85} INFO - Job 113: Subtask listen_for_mood
[2023-05-28T16:55:11.022+0000] {logging_mixin.py:149} INFO - Changing /opt/***/logs/dag_id=listen_to_the_stream/run_id=scheduled__2023-05-28T16:54:59.782129+00:00/task_id=listen_for_mood permission to 509
[2023-05-28T16:55:11.023+0000] {task_command.py:410} INFO - Running <TaskInstance: listen_to_the_stream.listen_for_mood scheduled__2023-05-28T16:54:59.782129+00:00 [running]> on host a2614f0ed60a
[2023-05-28T16:55:11.135+0000] {taskinstance.py:1598} ERROR - Trigger failed:
Traceback (most recent call last):

  File "/home/***/.local/lib/python3.7/site-packages/***/jobs/triggerer_job_runner.py", line 529, in cleanup_finished_triggers
    result = details["task"].result()

  File "/home/***/.local/lib/python3.7/site-packages/***/jobs/triggerer_job_runner.py", line 607, in run_trigger
    async for event in trigger.run():

  File "/home/***/.local/lib/python3.7/site-packages/***/providers/apache/kafka/triggers/await_message.py", line 91, in run
    consumer_hook = KafkaConsumerHook(topics=self.topics, kafka_config_id=self.kafka_config_id)

  File "/home/***/.local/lib/python3.7/site-packages/***/providers/apache/kafka/hooks/consume.py", line 36, in __init__
    super().__init__(kafka_config_id=kafka_config_id)

  File "/home/***/.local/lib/python3.7/site-packages/***/providers/apache/kafka/hooks/base.py", line 43, in __init__
    self.get_conn

  File "/home/***/.local/lib/python3.7/site-packages/cached_property.py", line 36, in __get__
    value = obj.__dict__[self.func.__name__] = self.func(obj)

  File "/home/***/.local/lib/python3.7/site-packages/***/providers/apache/kafka/hooks/base.py", line 62, in get_conn
    config = self.get_connection(self.kafka_config_id).extra_dejson

  File "/home/***/.local/lib/python3.7/site-packages/***/hooks/base.py", line 72, in get_connection
    conn = Connection.get_connection_from_secrets(conn_id)

  File "/home/***/.local/lib/python3.7/site-packages/***/models/connection.py", line 434, in get_connection_from_secrets
    raise AirflowNotFoundException(f"The conn_id `{conn_id}` isn't defined")

***.exceptions.AirflowNotFoundException: The conn_id `kafka_listener` isn't defined

[2023-05-28T16:55:11.148+0000] {taskinstance.py:1824} ERROR - Task failed with exception
airflow.exceptions.TaskDeferralError: Trigger failure
[2023-05-28T16:55:11.152+0000] {taskinstance.py:1350} INFO - Marking task as FAILED. dag_id=listen_to_the_stream, task_id=listen_for_mood, execution_date=20230528T165459, start_date=20230528T165507, end_date=20230528T165511
[2023-05-28T16:55:11.168+0000] {standard_task_runner.py:109} ERROR - Failed to execute job 113 for task listen_for_mood (Trigger failure; 467)
[2023-05-28T16:55:11.183+0000] {local_task_job_runner.py:225} INFO - Task exited with return code 1
[2023-05-28T16:55:11.203+0000] {taskinstance.py:2651} INFO - 0 downstream tasks scheduled from follow-on schedule check
